Episode	EpReward	EpSteps	EpDist	EpAvgSpeed	DistHigh	AverageStepReward	StdStepReward	MaxStepReward	MinStepReward	AverageDeltaProg	StdDeltaProg	MaxDeltaProg	MinDeltaProg	TotalSteps	EpTime	TotalTime
1	-47501.83125469135	329	0.0069523104	3.9476528	0.0069523104	-144.38246	67.05	-80.11852	-399.3985	1.3119997e-05	1.4778329e-05	9.024376e-05	-3.0207448e-06	329	23.956448793411255	23.957390546798706
2	-20414.604611038696	149	0.0036300437	2.7482893	0.0069523104	-137.01077	68.01326	-76.42405	-383.2393	9.278625e-06	9.209906e-06	4.9160095e-05	-3.592344e-06	478	14.41057300567627	38.37096095085144
3	-25041.42069124058	152	0.003555996	2.3812747	0.0069523104	-164.7462	76.06204	-92.80737	-395.6907	8.186314e-06	1.0844226e-05	7.327646e-05	-2.3923349e-06	630	14.06176209449768	52.43572163581848
4	-12733.166322312318	84	0.0027333444	1.7711681	0.0069523104	-151.5853	62.598953	-96.37144	-398.78128	5.0698154e-06	6.2877457e-06	2.9975781e-05	-3.8885046e-06	714	9.934844493865967	62.37451910972595
5	-19093.12225023657	141	0.0031239362	1.8808792	0.0069523104	-135.4122	54.067516	-82.60452	-386.7668	5.9605436e-06	7.377705e-06	4.606438e-05	-1.7944258e-06	855	13.530299425125122	75.9078164100647
6	-10873.235077493824	61	0.00249213	1.4816285	0.0069523104	-178.24977	85.337326	-89.329056	-392.29135	4.4147055e-06	5.0750873e-06	2.1882122e-05	-1.198845e-06	916	8.298037052154541	84.20885062217712
7	-48058.70421862835	382	0.011275986	5.36833	0.011275986	-125.80812	78.55633	-1.5928559	-428.74997	2.3552311e-05	6.239259e-05	0.0006869985	-4.5089982e-06	1298	33.042102098464966	117.25389981269836
8	-9739.878122225404	61	0.002701937	1.6255959	0.011275986	-159.67014	79.301605	-78.685265	-381.89102	6.7810056e-06	1.0673718e-05	7.6574506e-05	0.0	1359	10.373714208602905	127.63061237335205
9	-26929.92076766491	184	0.007483737	6.2560472	0.011275986	-146.35826	67.94978	-84.13122	-414.43704	2.8198625e-05	7.6827055e-05	0.0008651987	-1.7986167e-06	1543	18.500965356826782	146.13457608222961
10	-330925.9413787021	1000	0.03826238	8.551587	0.03826238	-330.92593	169.63652	-2.8977776	-718.6495	3.5984576e-05	8.388713e-05	0.0014124806	-5.448237e-06	2543	82.71137952804565	228.84895300865173
11	-6953.336080956273	45	0.0024681496	1.3528748	0.03826238	-154.51857	66.67062	-87.370445	-388.1803	4.2032552e-06	4.300246e-06	2.5779242e-05	-2.0982698e-06	2588	8.593281269073486	237.44523239135742
12	-32397.652795270085	217	0.005758173	3.734894	0.03826238	-149.29794	56.69864	-82.900826	-300.62085	1.60731e-05	5.386426e-05	0.0007404634	-2.716668e-06	2805	21.798221826553345	259.24645161628723
13	-20551.84853837639	133	0.004061235	3.2423277	0.03826238	-154.52518	59.31601	-86.91805	-418.88577	1.3779512e-05	4.1053438e-05	0.0004463906	-2.3981556e-06	2938	14.765788316726685	274.01523756980896
14	-15061.99637553608	114	0.0041745296	3.7549946	0.03826238	-132.12277	60.250874	-85.1221	-387.10602	1.6869333e-05	4.414008e-05	0.00045671873	-1.502689e-06	3052	14.100918531417847	288.1201536655426
15	-49604.57130948082	433	0.0122348815	5.1395197	0.03826238	-114.56021	71.37186	-1.6690524	-385.53137	2.3003175e-05	5.7924113e-05	0.0006185975	-2.093846e-06	3485	37.57502293586731	325.69817447662354
16	-53271.09068978764	434	0.01175622	4.92031	0.03826238	-122.74445	75.174965	-1.3236874	-429.01035	2.184243e-05	5.6880403e-05	0.0006383369	-1.9166619e-06	3919	38.66546106338501	364.36657762527466
17	-106039.84985759109	727	0.024251534	6.7482553	0.03826238	-145.8595	70.8612	-1.2942029	-428.39545	3.0163777e-05	7.362922e-05	0.0009508128	-1.341477e-05	4646	59.19810676574707	423.5686535835266
18	-27684.63505622372	186	0.00843455	6.565044	0.03826238	-148.84212	70.622795	-78.3979	-382.3618	3.2933178e-05	8.247887e-05	0.0007156227	-1.8561259e-06	4832	19.792219877243042	443.3638713359833
19	-30227.607327080797	207	0.0063371668	4.6473846	0.03826238	-146.0271	74.51967	-80.428825	-394.10745	1.9876008e-05	4.5976325e-05	0.0005990816	-3.9241277e-06	5039	20.696811199188232	464.0636808872223
20	-22715.795727769844	222	0.007151173	5.1181245	0.03826238	-102.32341	73.39248	-1.4144634	-388.34387	2.2084438e-05	5.2618932e-05	0.00053982716	-7.264316e-06	5261	22.532880544662476	486.5995593070984
21	-227529.6080494317	1000	0.029807074	6.742135	0.03826238	-227.5296	101.54523	-88.56543	-579.79956	2.7520877e-05	5.8229656e-05	0.0012371335	-7.2084367e-06	6261	82.39419460296631	568.9967522621155
22	-2416.752251210157	13	0.0022514255	0.74109423	0.03826238	-185.90402	53.194916	-103.066696	-303.29404	3.1268619e-06	3.5476091e-06	1.2056902e-05	0.0	6274	5.860800504684448	574.8595509529114
23	-57216.60543160699	414	0.01805586	8.351712	0.03826238	-138.20435	67.17839	-1.4313898	-357.50974	3.8228012e-05	0.00011045233	0.00183023	-3.8968865e-06	6688	37.670838356018066	612.5333876609802
24	-10952.086613540538	61	0.0026552745	1.6947215	0.03826238	-179.54239	78.92949	-93.008514	-395.5554	6.6204743e-06	9.974806e-06	6.894395e-05	-2.6978087e-06	6749	9.694836378097534	622.2307198047638
25	-46549.997559760326	362	0.00897171	4.4005914	0.03826238	-128.59116	64.83949	-45.80621	-395.15576	1.8456672e-05	4.837628e-05	0.0006134007	-3.4831464e-06	7111	33.602618932724	655.8373377323151
26	-227924.87819794565	600	0.0193958	6.70008	0.03826238	-379.8748	151.08493	-87.5349	-718.8227	2.8531993e-05	6.7437686e-05	0.0010673255	-9.0058893e-07	7711	51.507232904434204	707.3485686779022
27	-184752.89885802206	850	0.039844565	10.37553	0.039844565	-217.35635	136.70607	-2.2083268	-710.1141	4.4192664e-05	0.0001059605	0.0015505096	-4.80935e-06	8561	71.53179502487183	778.8833315372467
28	-99709.35641175043	484	0.01466998	6.4849234	0.039844565	-206.01108	141.15094	-80.03792	-700.3146	2.5608004e-05	6.7974324e-05	0.00088733993	-1.0937452e-05	9045	42.0258252620697	820.9131536483765
29	-96299.57836153172	318	0.01712247	10.434242	0.039844565	-302.82886	165.13594	-96.0036	-710.7891	4.6892117e-05	0.000109403394	0.0012937849	-2.6978087e-06	9363	30.535315990447998	851.4533443450928
30	-37827.5660268534	274	0.0064332862	3.8060427	0.039844565	-138.05681	70.480125	-75.31296	-386.9636	1.5165993e-05	3.2115677e-05	0.00046972698	-5.4407865e-06	9637	25.297341346740723	876.7546820640564
31	-128050.54260006966	755	0.055892948	24.50224	0.055892948	-169.60338	129.81642	-0.35688677	-673.92035	7.1078655e-05	0.00046689782	0.005643945	-0.010246962	10392	64.50308012962341	941.261730670929
32	-124329.41701541422	384	0.1266023	74.68875	0.1266023	-323.7745	306.0911	-0.12727092	-993.63135	0.00032382418	0.00068263256	0.0072603226	-3.6761165e-05	10776	35.63858652114868	976.9033153057098
33	-158975.06729427003	385	0.061412144	36.540848	0.1266023	-412.92227	224.03008	-3.967586	-896.4282	0.000153679	0.00042132288	0.0057499185	-0.0002782382	11161	36.030033111572266	1012.9363451004028
34	-116560.99058546871	460	0.08358978	45.48859	0.1266023	-253.39346	116.13971	-2.970313	-457.7752	0.00017672019	0.0004129446	0.0048851147	-2.7261674e-05	11621	40.0680136680603	1053.0073564052582
35	-168254.15720862494	431	0.1266023	66.90296	0.1266023	-390.38086	234.09212	-13.109437	-990.44385	0.00028846358	0.0005485589	0.005457636	-4.8816204e-05	12052	39.36838698387146	1092.3797407150269
36	-209887.60441649798	511	0.05719905	31.186039	0.1266023	-410.73892	261.96884	-43.10515	-1069.5862	0.000107600885	0.00028899097	0.0038951114	-4.1808933e-05	12563	45.232784271240234	1137.615523815155
37	-253091.49977860088	652	0.02071638	6.6803794	0.1266023	-388.17715	149.73946	-85.088524	-711.904	2.8401784e-05	6.613927e-05	0.0012094812	-9.391457e-06	13215	55.30872082710266	1192.92724275589
38	-62092.92966002505	234	0.008494073	7.6528807	0.1266023	-265.3544	154.33241	-95.37962	-687.63	2.6611366e-05	8.773841e-05	0.0009593454	-5.382113e-06	13449	22.832486867904663	1215.7627277374268
39	-102565.1758314441	324	0.010186285	5.438234	0.1266023	-316.55917	161.94397	-94.99934	-702.02966	2.4437571e-05	7.0087764e-05	0.00083544804	-8.90065e-06	13773	31.157358407974243	1246.9240365028381
40	-18807.71242665453	163	0.0044770157	3.198101	0.1266023	-115.38474	75.07268	-22.9303	-382.78952	1.35619775e-05	3.9981624e-05	0.000495343	-5.416572e-06	13936	17.28302240371704	1264.2100212574005
41	-10015.0100698811	61	0.0023980066	0.8899385	0.1266023	-164.18048	71.40212	-86.0578	-386.42108	2.2113225e-06	3.3229842e-06	1.318939e-05	-1.7986167e-06	13997	9.105460166931152	1273.3184792995453
42	-16175.359305732884	109	0.002772828	1.6997595	0.1266023	-148.39778	54.69742	-79.32694	-282.30655	4.6295063e-06	5.4214224e-06	3.051944e-05	-6.281538e-06	14106	13.258164644241333	1286.5796415805817
43	-10900.167854844593	61	0.002509516	1.0253179	0.1266023	-178.69128	77.38338	-97.38122	-398.3056	3.1695579e-06	5.3419603e-06	3.0575087e-05	-8.9919195e-07	14167	9.51805853843689	1296.1006667613983
44	-8978.848115260247	61	0.0026202777	2.2126143	0.1266023	-147.19423	62.18002	-84.845726	-385.60126	6.7131373e-06	5.6755935e-06	1.7685583e-05	-4.1965395e-06	14228	9.33133864402771	1305.4349575042725
45	-61310.866365261376	189	0.005511923	6.4819736	0.1266023	-324.3961	159.76135	-86.01328	-630.9714	1.7410568e-05	7.0019516e-05	0.00070320163	-8.268049e-05	14417	20.20099949836731	1325.6389553546906
46	-22222.760476918425	115	0.00414447	3.5197306	0.1266023	-193.24141	81.783134	-84.394226	-437.72186	1.6200602e-05	5.6985802e-05	0.00058864104	-8.9919195e-07	14532	13.725226402282715	1339.3661804199219
47	-15440.79412409477	97	0.002719286	1.4853411	0.1266023	-159.18346	69.09525	-81.692535	-385.06027	4.6502473e-06	6.36516e-06	2.9675895e-05	-2.0985026e-06	14629	12.430391311645508	1351.7995252609253
48	-16928.21328247199	143	0.004336851	2.7230942	0.1266023	-118.37911	68.81908	-2.6533742	-381.89484	1.4191407e-05	5.5115834e-05	0.00052494043	-6.612856e-06	14772	16.40869927406311	1368.2122213840485
49	-9618.976407872047	61	0.0022583199	0.38770518	0.1266023	-157.68813	44.297455	-78.98923	-267.7241	7.0034315e-07	1.369076e-06	4.7960784e-06	-1.7986167e-06	14833	9.184036016464233	1377.3992478847504
50	-45738.746084077284	303	0.0068016173	2.996874	0.1266023	-150.95296	80.78801	-5.564834	-385.49515	1.4875665e-05	6.620304e-05	0.0007529976	-6.952323e-06	15136	28.988343954086304	1406.3905897140503
51	-12606.424574532546	61	0.0023980066	0.8904967	0.1266023	-206.66272	77.02069	-94.101074	-395.02872	2.9804078e-06	5.3168174e-06	1.9784085e-05	-3.2973476e-06	15197	9.726083755493164	1416.120670557022
52	-21530.447442135308	122	0.0032663916	1.3488294	0.1266023	-176.4791	65.6155	-63.8052	-403.92145	8.2997385e-06	4.6076093e-05	0.0005024923	-2.394896e-06	15319	15.265849113464355	1431.3895184993744
53	-15547.202637473587	92	0.0024747443	0.54669696	0.1266023	-168.99133	48.145176	-77.47318	-377.59897	2.4273784e-06	6.110351e-06	3.3872435e-05	-5.995389e-07	15411	12.861970663070679	1444.254487991333
54	-19605.081891744398	104	0.0028069275	0.75020367	0.1266023	-188.5104	56.319138	-96.36642	-399.4167	5.732223e-06	3.7540427e-05	0.000377574	-6.281305e-06	15515	13.369815111160278	1457.629299879074
55	-12583.282978809439	61	0.0022397125	0.22136518	0.1266023	-206.28333	86.10735	-81.67774	-381.78366	3.854225e-07	1.1783044e-06	5.124137e-06	-4.219124e-06	15576	9.21118688583374	1466.8424844741821
56	-10792.587567064911	61	0.0022382054	0.10459488	0.1266023	-176.92766	27.01992	-81.988594	-260.58572	8.4002245e-08	4.7620927e-07	2.1099113e-06	-1.2055971e-06	15637	9.762288093566895	1476.6067674160004
57	-11639.329109630082	61	0.0024276825	0.6751062	0.1266023	-190.80867	84.85269	-87.80238	-389.15955	2.8845466e-06	6.235552e-06	3.357255e-05	-1.7983839e-06	15698	9.631397485733032	1486.2411632537842
58	-10881.124530975707	61	0.0022382054	0.32338297	0.1266023	-178.37909	55.490788	-85.38419	-385.42313	4.842496e-07	1.8169774e-06	9.645475e-06	-2.1099113e-06	15759	10.68740439414978	1496.9315657615662
59	-12767.365804156754	75	0.0024225865	0.6619261	0.1266023	-170.23155	46.389908	-79.06297	-381.2827	1.882473e-06	4.070086e-06	1.94842e-05	-1.1990778e-06	15834	10.015610218048096	1506.9501745700836
60	-11677.72468402423	61	0.0022757058	0.10862758	0.1266023	-191.43813	39.29748	-96.90622	-396.96362	1.7690549e-07	6.895119e-07	3.2973476e-06	-1.1990778e-06	15895	9.995400428771973	1516.9485728740692
61	-22196.810730220284	131	0.0028191914	0.8170307	0.1266023	-169.44128	50.25759	-75.12031	-378.65738	4.281462e-06	2.4273777e-05	0.00027421443	-1.7986167e-06	16026	14.658564329147339	1531.611174106598
62	-11562.867683437653	61	0.0024312795	0.7398992	0.1266023	-189.5552	70.57677	-77.57263	-379.6641	2.2850304e-06	4.146872e-06	1.4688121e-05	-2.0982698e-06	16087	9.494019985198975	1541.1091921329498
63	-21073.86515188683	86	0.0033927218	2.3051903	0.1266023	-245.0449	81.38647	-84.99784	-438.95792	1.2619091e-05	5.209721e-05	0.00047251093	-3.5921112e-06	16173	12.404294967651367	1553.5164847373962
64	-11370.921835619025	61	0.002290394	0.20899057	0.1266023	-186.40854	64.038826	-87.817116	-388.2614	4.8157773e-07	9.591524e-07	2.9974617e-06	-2.0982698e-06	16234	9.66323471069336	1563.182718038559
65	-12364.048385119997	61	0.0022882957	0.1922228	0.1266023	-202.6893	54.049797	-90.6997	-391.5276	4.1278201e-07	1.0582875e-06	5.0957315e-06	-1.4987309e-06	16295	9.595975875854492	1572.781690120697
66	-20925.679879080504	120	0.0027665466	0.4935534	0.1266023	-174.38066	40.040302	-81.49268	-384.03204	3.8080693e-06	2.6158137e-05	0.00028402754	-1.7983839e-06	16415	14.566802740097046	1587.351490497589
67	-11240.285249710083	61	0.0023044825	0.11862406	0.1266023	-184.26695	49.554474	-85.671265	-385.81577	2.1130334e-07	6.566095e-07	2.6978087e-06	-5.995389e-07	16476	9.566810131072998	1596.9212527275085
68	-11457.016107870266	61	0.0022709097	0.20722397	0.1266023	-187.81995	59.99079	-84.374916	-384.72473	3.1941312e-07	8.867008e-07	2.9976945e-06	-1.7986167e-06	16537	9.121590375900269	1606.0448422431946
69	-14222.472186227795	76	0.0025969464	0.41695896	0.1266023	-187.13779	42.176746	-86.6402	-387.82935	4.9225455e-06	3.504946e-05	0.00030583097	-5.0850213e-06	16613	11.431798934936523	1617.4796392917633
70	-10683.60867042141	61	0.002296389	0.115191504	0.1266023	-175.14114	27.909985	-82.6572	-215.85995	2.2113186e-07	7.88243e-07	5.3956173e-06	0.0	16674	9.79558539390564	1627.2782225608826
71	-11279.688983831089	61	0.0022538234	0.12343072	0.1266023	-184.91295	21.634516	-89.68149	-189.93144	3.054471e-07	8.583437e-07	4.219124e-06	0.0	16735	9.831211566925049	1637.1123795509338
72	-11744.549497956876	61	0.002290394	0.12698168	0.1266023	-192.5336	29.98097	-98.695656	-277.69406	2.604459e-07	8.4693124e-07	4.1965395e-06	0.0	16796	9.512012481689453	1646.627390384674
73	-11087.868006831035	61	0.0022610177	0.16489264	0.1266023	-181.76833	39.949017	-88.09847	-388.26834	3.937357e-07	1.4001326e-06	9.592157e-06	-6.0279854e-07	16857	10.544038772583008	1657.1743988990784
74	-11363.103363842703	61	0.002222833	0.2208092	0.1266023	-186.28038	50.61772	-88.90355	-389.36023	4.5459993e-07	1.5394811e-06	7.234048e-06	-3.0142255e-06	16918	9.760996103286743	1666.9383935928345
75	-12007.776766036171	61	0.0022107763	0.17347687	0.1266023	-196.84883	56.563225	-90.45383	-390.7352	2.5694962e-07	8.678542e-07	4.2200554e-06	-1.8086284e-06	16979	9.470584869384766	1676.4119296073914
76	-10403.147626147605	61	0.0022568211	0.1563877	0.1266023	-170.5434	43.954037	-78.97993	-379.44775	3.743535e-07	9.484028e-07	5.3995755e-06	0.0	17040	9.290266990661621	1685.7061941623688
77	-23761.02949938737	129	0.0028643569	0.8032899	0.1266023	-184.19403	65.71883	-78.04568	-382.98636	4.8538873e-06	3.0379899e-05	0.000341258	-2.6978087e-06	17169	14.196684837341309	1699.9058775901794
78	-12442.390581608284	61	0.0023116765	0.2766888	0.1266023	-203.97363	67.787094	-94.49484	-395.05402	5.061471e-07	1.8458497e-06	1.0191696e-05	-3.2973476e-06	17230	9.663877487182617	1709.5727531909943
79	-10727.406647521537	61	0.0023005856	0.13024628	0.1266023	-175.85913	23.76876	-82.40555	-182.98593	5.8967224e-08	9.4606645e-07	3.5970006e-06	-4.7960784e-06	17291	9.676515579223633	1719.253267288208
80	-11897.006293535698	61	0.0022882957	0.15476869	0.1266023	-195.0329	34.287537	-95.72823	-395.64026	2.9484374e-07	1.0219263e-06	5.0957315e-06	0.0	17352	10.3983473777771	1729.654613494873
81	-11230.70371153066	61	0.00222856	0.12128704	0.1266023	-184.10991	22.71606	-87.46787	-229.80026	2.1247514e-07	9.829316e-07	5.7269353e-06	0.0	17413	9.399142265319824	1739.0567548274994
82	-11522.55205558613	61	0.0022439316	0.19120182	0.1266023	-188.89429	42.195057	-93.68189	-393.78183	4.6447042e-07	1.4630276e-06	7.234048e-06	-3.617024e-06	17474	9.497980117797852	1748.5577335357666
83	-10896.680660343263	61	0.0022649146	0.15087283	0.1266023	-178.6341	44.699005	-89.912895	-390.10892	5.2185743e-07	1.9567883e-06	1.10911205e-05	-8.994248e-07	17535	9.66478157043457	1758.2255153656006
84	-25216.468286411837	92	0.0034292438	2.405139	0.1266023	-274.09204	68.46473	-90.09251	-483.10373	1.2561264e-05	5.8552738e-05	0.00055066706	-2.0957086e-06	17627	12.39832854270935	1770.6268420219421
85	-17211.80695445044	87	0.0025846825	0.45814943	0.1266023	-197.83688	50.189842	-88.59365	-395.27374	3.2758173e-06	2.1924034e-05	0.00020353473	-2.9911753e-06	17714	11.212820768356323	1781.8426604270935
86	-11021.138098293915	61	0.0022936913	0.09251153	0.1266023	-180.67438	21.62822	-85.559616	-185.67152	1.1302592e-07	5.619009e-07	2.3981556e-06	-1.1990778e-06	17775	9.565387725830078	1791.4110469818115
87	-11360.017979034688	61	0.002290394	0.14552435	0.1266023	-186.22981	28.203903	-91.09222	-291.0932	2.4078886e-07	9.272239e-07	4.7963113e-06	-8.994248e-07	17836	9.031789302825928	1800.4468050003052
88	-13533.05582668772	86	0.0029848758	1.18534	0.1266023	-157.36111	43.611183	-55.639942	-356.33667	8.09977e-06	4.4305507e-05	0.00040526153	-2.9904768e-06	17922	11.969819784164429	1812.4195942878723
89	-11398.88802429242	61	0.0022733076	0.11558671	0.1266023	-186.86705	55.358192	-77.66383	-377.67197	2.0147485e-07	8.611434e-07	3.8968865e-06	-1.4987309e-06	17983	9.70572280883789	1822.128315448761
90	-11117.46788784489	61	0.0022577203	0.18358867	0.1266023	-182.25359	46.134922	-83.84479	-383.94833	3.1991695e-07	1.1554038e-06	5.3956173e-06	-9.043142e-07	18044	9.400095701217651	1831.5314095020294
91	-18496.261189841665	98	0.0025520786	1.1317967	0.1266023	-188.73738	54.744534	-88.567085	-391.07852	3.4396166e-06	8.402102e-06	3.9268052e-05	-1.1965167e-06	18142	12.785399436950684	1844.319806098938
92	-11336.53620008286	61	0.0023116765	0.03939981	0.1266023	-185.84483	13.013592	-87.27529	-208.58516	5.405488e-08	3.2343394e-07	2.0982698e-06	-5.995389e-07	18203	10.826328039169312	1855.149132013321
93	-11360.256598390639	61	0.0022490274	0.085808724	0.1266023	-186.23369	17.80084	-89.41864	-189.65706	1.7740932e-07	6.732195e-07	4.4961926e-06	0.0	18264	9.435470819473267	1864.5876014232635
94	-11157.478853215463	61	0.0022808015	0.1287194	0.1266023	-182.90948	27.44499	-90.915375	-191.29459	2.2604421e-07	8.384959e-07	3.2973476e-06	-1.7986167e-06	18325	9.93017864227295	1874.52077460289
95	-11802.332737311255	61	0.0022703102	0.070991285	0.1266023	-193.48085	21.624357	-98.378334	-198.43947	6.3883384e-08	2.878036e-07	1.7986167e-06	-2.9965304e-07	18386	9.333735227584839	1883.857480764389
96	-11043.42167212069	61	0.0023149739	0.04304692	0.1266023	-181.0397	12.697069	-82.68874	-182.71649	0.0	0.0	0.0	0.0	18447	8.861527442932129	1892.7230060100555
97	-10918.926818259526	61	0.0024249847	0.2228337	0.1266023	-178.99878	24.792734	-85.34251	-185.92822	2.35383e-06	1.5395326e-05	0.000121101504	-2.3979228e-06	18508	10.60037612915039	1903.3273799419403
98	-11477.382314176764	61	0.0022670128	0.22398253	0.1266023	-188.15378	51.73371	-90.35696	-390.90564	4.2283952e-07	1.0423562e-06	3.9075967e-06	0.0	18569	9.563112735748291	1912.8934903144836
99	-10932.86469769571	61	0.0023005856	0.43008965	0.1266023	-179.2273	53.570602	-88.44805	-388.98352	8.0099085e-07	2.1573076e-06	1.0491582e-05	-2.6978087e-06	18630	9.4664785861969	1922.3629672527313
100	-11226.961082851049	61	0.0023410528	0.4198104	0.1266023	-184.04852	50.615105	-80.493195	-380.67062	9.434947e-07	2.483647e-06	1.2889504e-05	-3.2973476e-06	18691	9.959868669509888	1932.3248336315155
101	-11634.970397263765	61	0.0023005856	0.043227397	0.1266023	-190.73721	17.80532	-94.00848	-194.04953	0.0	1.6281803e-07	8.9919195e-07	-8.9919195e-07	18752	11.033156394958496	1943.3609602451324
102	-10291.86038447963	61	0.00224573	0.11195371	0.1266023	-168.71902	24.770947	-75.032295	-175.81407	2.3206344e-07	9.103614e-07	6.028451e-06	-9.043142e-07	18813	9.715800285339355	1953.0797591209412
103	-10783.96634116862	61	0.0022808015	0.057275333	0.1266023	-176.78633	12.712405	-78.31683	-178.47046	8.3536584e-08	5.32174e-07	3.8968865e-06	-5.995389e-07	18874	9.764023542404175	1962.8467810153961
104	-11052.618421731051	61	0.0023251656	0.040887985	0.1266023	-181.19043	2.7062654	-180.79227	-202.15253	2.4569358e-08	1.3617553e-07	8.9919195e-07	0.0	18935	9.328636169433594	1972.1794140338898
105	-10648.133541897405	61	0.002281401	0.08030912	0.1266023	-174.55956	28.197811	-79.24978	-279.48157	1.4741997e-07	5.985811e-07	3.2973476e-06	-5.995389e-07	18996	9.398498058319092	1981.580910205841
106	-10788.557523887139	61	0.0022351912	0.09405988	0.1266023	-176.8616	27.434368	-84.85976	-185.21375	7.905936e-08	6.8148796e-07	2.411427e-06	-2.411427e-06	19057	9.935383081436157	1991.520292043686
107	-11876.237549148034	61	0.0022861974	0.070488624	0.1266023	-194.69241	24.734665	-101.22918	-201.4154	1.3759528e-07	6.726495e-07	3.2973476e-06	-1.4989637e-06	19118	9.92688536643982	2001.4501278400421
108	-11172.031227852218	61	0.00223278	0.08498294	0.1266023	-183.14806	22.487116	-86.73629	-220.306	7.906318e-08	6.196765e-07	3.3157412e-06	-2.411427e-06	19179	9.468003749847412	2010.9211311340332
109	-11371.040615035687	61	0.0022610177	0.042882722	0.1266023	-186.4105	19.701683	-88.30735	-245.53758	4.4226372e-08	3.9079194e-07	1.4987309e-06	-1.1990778e-06	19240	9.393515348434448	2020.3166444301605
110	-9984.202280926984	61	0.0022306698	0.08846279	0.1266023	-163.67545	21.984915	-67.98863	-193.17178	1.9271125e-07	8.0219405e-07	5.7269353e-06	0.0	19301	10.514044523239136	2030.8336863517761
111	-21105.417571772356	115	0.0027892797	0.5520929	0.1266023	-183.52538	30.971836	-81.25091	-382.17075	4.46586e-06	3.4347973e-05	0.00036550825	-5.9823506e-06	19416	14.235749006271362	2045.072433233261
112	-11105.41222496191	61	0.0022397125	0.09357295	0.1266023	-182.05594	21.973482	-86.130936	-211.93275	4.4470653e-08	5.614975e-07	1.8086284e-06	-1.8086284e-06	19477	9.495931148529053	2054.571362733841
113	-10819.802563967649	61	0.0022724085	0.107210055	0.1266023	-177.37383	23.656866	-80.67945	-245.7036	1.86734e-07	5.974547e-07	3.2973476e-06	0.0	19538	9.875083208084106	2064.4494440555573
114	-14488.972310710698	76	0.002707022	0.74975467	0.1266023	-190.64436	56.240383	-86.10919	-390.0516	5.3951762e-06	3.0671203e-05	0.00026794453	-2.9911753e-06	19614	11.002685070037842	2075.4551270008087
115	-11968.173873303924	61	0.0022610177	0.070443496	0.1266023	-196.19957	53.483913	-85.83826	-385.7006	4.4226372e-08	3.6343206e-07	1.4987309e-06	-1.4987309e-06	19675	9.528653621673584	2084.9877462387085
116	-10549.429998536594	61	0.0022748066	0.056602355	0.1266023	-172.94147	13.100251	-74.16699	-197.83464	8.8452744e-08	3.4046377e-07	2.3981556e-06	-2.9988587e-07	19736	9.531536102294922	2094.523235797882
117	-12084.620935556944	61	0.0022820006	0.19829579	0.1266023	-198.10854	45.05163	-153.74512	-387.62268	5.9459984e-07	1.9178472e-06	9.292504e-06	-8.994248e-07	19797	9.525330781936646	2104.0515642166138
118	-11749.116434704978	61	0.002263116	0.07259545	0.1266023	-192.60846	12.716504	-94.10724	-194.31859	1.5233613e-07	7.069117e-07	4.4964254e-06	0.0	19858	10.151041507720947	2114.2056035995483
119	-11784.00832182169	61	0.0022538234	0.033317823	0.1266023	-193.18045	12.6985035	-94.81834	-194.86108	0.0	0.0	0.0	0.0	19919	9.997045755386353	2124.2046477794647
120	-11278.045262604952	61	0.0022724085	0.03564783	0.1266023	-184.88599	0.01451503	-184.85292	-184.92126	0.0	2.1711881e-07	1.1990778e-06	-1.1990778e-06	19980	9.305851936340332	2133.5134975910187
121	-11649.329606182873	61	0.00230748	0.19963114	0.1266023	-190.97263	53.89824	-84.35269	-384.34705	3.4889482e-07	1.5189711e-06	1.0191696e-05	-2.0982698e-06	20041	9.544180393218994	2143.0606756210327
122	-11319.052444512025	61	0.00224573	0.047152873	0.1266023	-185.55821	12.673961	-87.39089	-187.38123	2.9481702e-08	3.977299e-07	1.7983839e-06	-1.7983839e-06	20102	10.113258838653564	2153.1769325733185
123	-10729.63745925203	61	0.0022640154	0.1888916	0.1266023	-175.89569	46.838333	-81.88952	-382.20242	5.812369e-07	2.247121e-06	1.6486738e-05	-9.043142e-07	20163	9.697009563446045	2162.8769402503967
124	-11765.125991584733	61	0.002318571	0.04468863	0.1266023	-192.8709	0.017884003	-192.81247	-192.9055	3.9314028e-08	2.1352983e-07	1.1990778e-06	0.0	20224	9.130695104598999	2172.0106332302094
125	-12095.075420020614	61	0.0022610177	0.035208326	0.1266023	-198.27994	0.014897044	-198.23494	-198.31432	4.4226372e-08	3.42576e-07	2.6978087e-06	0.0	20285	9.596132040023804	2181.6097633838654
126	-11845.650359804276	61	0.0022568211	0.047590982	0.1266023	-194.19101	13.065371	-95.28453	-217.2294	4.9142532e-08	3.8065636e-07	2.9976945e-06	0.0	20346	9.435041189193726	2191.0478024482727
127	-10371.671889367048	61	0.0022532241	0.15206674	0.1266023	-170.02739	27.38649	-77.99495	-178.89551	2.9562239e-07	1.0120766e-06	6.017508e-06	-2.9965304e-07	20407	10.303433656692505	2201.3532342910767
128	-11291.15837314818	61	0.002318571	0.08929414	0.1266023	-185.10095	37.670876	-85.85621	-385.89438	1.670808e-07	6.6149397e-07	3.5972334e-06	-1.1990778e-06	20468	9.205036640167236	2210.561269044876
129	-11167.31865999708	61	0.0022610177	0.06464643	0.1266023	-183.07079	12.700286	-84.694885	-184.74445	1.17938264e-07	5.3809106e-07	2.9976945e-06	0.0	20529	9.742056846618652	2220.3063204288483
130	-11428.217215888668	61	0.0022490274	0.04701821	0.1266023	-187.34781	0.02018859	-187.29297	-187.3932	9.828507e-09	7.613129e-08	5.995389e-07	0.0	20590	9.577289819717407	2229.8866090774536
131	-11232.487348332535	61	0.0022294642	0.07920448	0.1266023	-184.13913	29.526764	-82.225296	-326.3728	1.0870901e-07	6.127205e-07	3.0142255e-06	-2.1099113e-06	20651	10.284951448440552	2240.174558877945
132	-11379.081658506766	61	0.002263116	0.107474774	0.1266023	-186.54233	25.01677	-92.56497	-215.46165	1.7690549e-07	7.228913e-07	4.1965395e-06	-8.994248e-07	20712	9.87977647781372	2250.0573031902313
133	-10367.037755236495	61	0.00224573	0.12582855	0.1266023	-169.95145	30.679127	-76.43724	-276.55768	2.3206344e-07	7.9105286e-07	5.124137e-06	-5.995389e-07	20773	9.083979368209839	2259.1442534923553
134	-10637.590296942275	61	0.0022945905	0.052709796	0.1266023	-174.38673	18.85905	-73.70892	-273.75644	5.8967224e-08	2.9137217e-07	2.0982698e-06	-2.9965304e-07	20834	9.764480829238892	2268.9117288589478
135	-12118.52112814784	61	0.0022382054	0.04081145	0.1266023	-198.66428	4.7114754	-198.01535	-235.15907	0.0	0.0	0.0	0.0	20895	9.428020715713501	2278.3427472114563
136	-12280.300566775259	61	0.002265514	0.044115487	0.1266023	-201.3164	5.817742	-200.49963	-246.38008	2.4569358e-08	2.1225806e-07	8.9919195e-07	-8.9919195e-07	20956	10.330118417739868	2288.674864292145
137	-10990.692614575848	61	0.0022882957	0.04217772	0.1266023	-180.17531	0.013438624	-180.13785	-180.21077	3.4397864e-08	1.5446382e-07	8.994248e-07	0.0	21017	9.597465515136719	2298.2753286361694
138	-11414.231209004764	61	0.00223278	0.08350729	0.1266023	-187.11855	42.81893	-84.29442	-384.45883	1.8777219e-07	9.119146e-07	6.6312496e-06	0.0	21078	9.367331981658936	2307.6456592082977
139	-11123.649905220605	61	0.0023254654	0.048562024	0.1266023	-182.35487	12.698659	-83.99163	-184.04391	1.9657014e-08	1.1976121e-07	8.9919195e-07	0.0	21139	9.312960147857666	2316.961617231369
140	-10897.505919932388	61	0.002276605	0.10821825	0.1266023	-178.64764	28.182278	-83.50037	-283.57547	1.9164634e-07	7.4821736e-07	4.1965395e-06	-1.4987309e-06	21200	10.304238080978394	2327.268800973892
141	-11527.095304450952	61	0.0022610177	0.04386724	0.1266023	-188.96877	0.016189367	-188.93593	-189.00743	5.405488e-08	2.5172164e-07	1.4987309e-06	0.0	21261	8.993891716003418	2336.265691280365
142	-11630.877916709054	61	0.0022294642	0.08361504	0.1266023	-190.67014	22.140926	-92.22636	-292.63788	2.2729996e-07	9.57316e-07	6.6312496e-06	0.0	21322	9.993707418441772	2346.263365507126
143	-10711.583814474754	61	0.0022258472	0.032764707	0.1266023	-175.59973	13.716641	-76.60001	-215.81665	1.9763887e-08	4.07922e-07	1.2055971e-06	-1.2055971e-06	21383	9.944192171096802	2356.210513114929
144	-11713.106156625785	61	0.0021794285	0.09905943	0.1266023	-192.01811	28.586737	-90.32759	-390.38577	2.8659545e-07	1.131025e-06	7.8370795e-06	0.0	21444	9.925343751907349	2366.138853788376
145	-22518.176442969125	122	0.0026098085	0.3319026	0.1266023	-184.57521	35.96838	-79.77409	-381.08295	2.9842495e-06	2.409205e-05	0.00026438548	-2.691988e-06	21566	15.05509638786316	2381.1969475746155
146	-10926.306635961402	61	0.0022829	0.053132396	0.1266023	-179.11975	21.698395	-83.67284	-184.1203	8.35404e-08	2.8272834e-07	1.4989637e-06	0.0	21627	9.794488906860352	2390.995433807373
147	-11423.648029121105	61	0.0023020844	0.06142689	0.1266023	-187.27292	20.285852	-89.3131	-262.55795	3.931021e-08	3.093105e-07	1.4987309e-06	-1.1990778e-06	21688	9.679759502410889	2400.6781911849976
148	-11427.90500861546	61	0.0022162017	0.050324194	0.1266023	-187.3427	13.1631365	-88.56556	-214.26701	9.881943e-09	7.654521e-08	6.0279854e-07	0.0	21749	9.973913669586182	2410.6550436019897
149	-11154.96549038589	61	0.0023224677	0.09352941	0.1266023	-182.86829	22.100428	-84.46664	-284.38092	2.1130334e-07	6.9581773e-07	3.2973476e-06	-1.1990778e-06	21810	10.66508960723877	2421.3231315612793
150	-11126.9083101172	61	0.002317372	0.061512236	0.1266023	-182.40833	13.500031	-83.50856	-218.01767	3.9314028e-08	3.740002e-07	1.1990778e-06	-1.1990778e-06	21871	9.363505125045776	2430.6896352767944
151	-11446.07674227329	61	0.0022382054	0.08514337	0.1266023	-187.6406	21.62131	-92.320244	-192.68323	1.4329773e-07	8.928589e-07	3.9185397e-06	-3.3157412e-06	21932	9.808218717575073	2440.5008521080017
152	-11297.23149921652	61	0.0022484278	0.07042478	0.1266023	-185.2005	21.60951	-90.17917	-190.23564	1.08285334e-07	6.8714434e-07	2.6978087e-06	-2.6978087e-06	21993	9.37784218788147	2449.8816924095154
153	-10965.149061596952	61	0.0022258472	0.03755588	0.1266023	-179.75655	0.012526178	-179.73405	-179.78853	4.9413533e-08	3.8275556e-07	3.0142255e-06	0.0	22054	10.375966787338257	2460.26065659523
154	-11540.688339452725	61	0.0022294642	0.042473648	0.1266023	-189.1916	14.778607	-88.91975	-224.72728	2.4706766e-08	1.3694049e-07	9.043142e-07	0.0	22115	9.615790605545044	2469.8804154396057
155	-11455.962123563047	61	0.0022745067	0.06062958	0.1266023	-187.80267	13.226089	-89.16333	-217.11954	9.828125e-08	4.846302e-07	3.2973476e-06	0.0	22176	9.209707498550415	2479.0931203365326
156	-11799.01518251095	61	0.002318571	0.10410027	0.1266023	-193.42648	43.245518	-92.78589	-393.17438	2.3096037e-07	1.519186e-06	1.10911205e-05	-2.9974617e-06	22237	9.550002813339233	2488.6461329460144
157	-11860.749329835176	61	0.0022382054	0.044791915	0.1266023	-194.4385	17.808573	-97.70209	-197.77046	0.0	0.0	0.0	0.0	22298	9.765709161758423	2498.4158396720886
158	-12090.776969785802	61	0.0023224677	0.2301707	0.1266023	-198.20944	32.74833	-96.89337	-396.74554	4.717454e-07	1.9170263e-06	8.692965e-06	-5.6952704e-06	22359	10.143486022949219	2508.5622930526733
159	-11434.084561492782	61	0.0022397125	0.03741228	0.1266023	-187.444	0.019150738	-187.40619	-187.48752	2.4706766e-08	3.3331253e-07	1.5071128e-06	-1.5071128e-06	22420	9.396937131881714	2517.962230205536
160	-10841.114853195846	61	0.0022360955	0.044180557	0.1266023	-177.7232	5.222511	-177.00714	-218.17633	5.4352597e-08	2.217515e-07	9.043142e-07	-6.0279854e-07	22481	9.697063684463501	2527.6622915267944
161	-11661.237068672664	61	0.0022745067	0.03935059	0.1266023	-191.16783	13.152458	-92.40892	-217.82828	1.4740851e-08	1.14182136e-07	8.9919195e-07	0.0	22542	10.163365364074707	2537.8286550045013
162	-11395.8073203112	61	0.0022942908	0.055162266	0.1266023	-186.81653	17.582344	-86.89408	-281.00992	6.3883384e-08	8.089224e-07	4.7960784e-06	-1.7986167e-06	22603	10.56528115272522	2548.396934747696
163	-10612.331534561235	61	0.0022210246	0.039629422	0.1266023	-173.97266	0.016678588	-173.93292	-174.00851	3.4592528e-08	1.2323989e-07	6.0303137e-07	-3.0128285e-07	22664	9.457427501678467	2557.857360124588
164	-11710.849701019004	61	0.0022514255	0.03901534	0.1266023	-191.98116	7.6715355	-190.94725	-251.4045	3.9314028e-08	3.0452517e-07	2.3981556e-06	0.0	22725	9.429139375686646	2567.289497613907
165	-11423.023157228716	61	0.0023053817	0.03886202	0.1266023	-187.26266	5.3447804	-186.01611	-213.74689	1.4740851e-08	1.1418214e-07	8.9919195e-07	0.0	22786	9.485058307647705	2576.778553009033
166	-11092.916810625698	61	0.0023422518	0.03649601	0.1266023	-181.8511	0.016597955	-181.8091	-181.8859	2.948552e-08	1.4054295e-07	8.9919195e-07	0.0	22847	9.726527452468872	2586.508045196533
167	-12052.532451848965	61	0.0022059535	0.060380574	0.1266023	-197.5825	37.533524	-189.30495	-389.5182	2.4706766e-08	3.3331253e-07	1.5071128e-06	-1.5071128e-06	22908	10.529031991958618	2597.040074825287
168	-12205.27936623618	61	0.0022745067	0.060574245	0.1266023	-200.08655	12.708472	-101.647705	-201.8609	6.879573e-08	2.7350995e-07	1.4987309e-06	0.0	22969	9.765682697296143	2606.808755159378
169	-11335.524513770826	61	0.0022745067	0.029993467	0.1266023	-185.82828	0.011645091	-185.7971	-185.85652	1.4740851e-08	1.9886495e-07	8.9919195e-07	-8.9919195e-07	23030	9.530862092971802	2616.3415853977203
170	-11186.10140929278	61	0.0022703102	0.044234384	0.1266023	-183.3787	12.699648	-85.00774	-185.05905	5.405488e-08	2.7414143e-07	1.7986167e-06	0.0	23091	9.863459587097168	2626.2090435028076
171	-23003.831757584587	131	0.003272678	1.1824392	0.1266023	-175.60178	48.351757	-46.299915	-394.23883	7.473181e-06	5.3877142e-05	0.0006101085	-2.394896e-06	23222	15.429752588272095	2641.6417915821075
172	-11454.476134762168	61	0.002112212	0.038463164	0.1266023	-187.77832	0.02414165	-187.72873	-187.83046	0.0	3.0872178e-07	1.2055971e-06	-1.2055971e-06	23283	9.944009065628052	2651.589798927307
173	-11510.782301222906	61	0.0023095782	0.032921787	0.1266023	-188.70135	4.211824	-188.12903	-221.3258	3.4397864e-08	1.544564e-07	8.9919195e-07	0.0	23344	9.81654953956604	2661.409346103668
174	-11341.289964804426	61	0.0022149961	0.057044927	0.1266023	-185.92279	12.701159	-87.540245	-187.638	6.917742e-08	4.3454253e-07	3.3155084e-06	0.0	23405	10.373013973236084	2671.785329580307
175	-11307.706573496107	61	0.002198418	0.031569395	0.1266023	-185.37225	0.014907714	-185.32343	-185.40778	1.4821007e-08	1.14803015e-07	9.040814e-07	0.0	23466	9.66542935371399	2681.453757047653
176	-13022.58593676798	61	0.0022709097	0.15690802	0.1266023	-213.48502	59.591763	-98.197975	-398.58792	3.1941312e-07	1.171534e-06	7.194234e-06	-5.995389e-07	23527	9.470379829406738	2690.9271352291107
177	-11516.287717001978	61	0.0022089677	0.061289854	0.1266023	-188.79161	13.624315	-89.60879	-220.02417	7.41203e-08	3.960418e-07	2.7127098e-06	-3.0151568e-07	23588	9.199802160263062	2700.1299345493317
178	-11692.311107532121	61	0.002222833	0.06359469	0.1266023	-191.67722	18.089912	-94.58334	-216.74326	1.18590954e-07	6.866451e-07	5.124137e-06	-6.0279854e-07	23649	9.835077285766602	2709.9680116176605
179	-11619.438898950815	61	0.0022382054	0.053768434	0.1266023	-190.4826	13.395992	-91.6293	-223.67206	0.0	0.0	0.0	0.0	23710	10.296679496765137	2720.2676899433136
180	-11133.499007455073	61	0.0022412196	0.037969407	0.1266023	-182.51637	3.0216677	-182.08891	-205.92181	4.9413533e-08	2.5704267e-07	1.5071128e-06	-6.0279854e-07	23771	9.60119915008545	2729.870887041092
181	-11039.098439635243	61	0.0022873962	0.030797627	0.1266023	-180.96883	12.698651	-82.60554	-182.63919	1.9653196e-08	1.5221798e-07	5.995389e-07	-5.993061e-07	23832	9.633217334747314	2739.5071034431458
182	-11103.30952438293	61	0.0022397125	0.04167949	0.1266023	-182.02145	0.020452425	-181.98315	-182.05688	2.4706766e-08	1.913778e-07	1.5071128e-06	0.0	23893	9.500125169754028	2749.0102260112762
183	-11324.528766365256	61	0.002296389	0.084886916	0.1266023	-185.648	12.724379	-87.08645	-187.37468	1.6707698e-07	6.1534155e-07	3.2973476e-06	-8.9919195e-07	23954	10.766095399856567	2759.779320001602
184	-11358.572237870656	61	0.0022258472	0.03479298	0.1266023	-186.20612	13.229975	-87.38267	-214.97586	4.9413533e-08	3.8275556e-07	3.0142255e-06	0.0	24015	9.404746532440186	2769.1870651245117
185	-11505.386785814539	61	0.0021827442	0.032919995	0.1266023	-188.61292	10.403017	-187.24028	-269.19424	1.4824823e-08	1.1483259e-07	9.043142e-07	0.0	24076	9.846339464187622	2779.0364027023315
186	-11163.735284609254	61	0.0023011852	0.041031733	0.1266023	-183.01202	6.0239043	-181.88127	-220.55045	2.4569358e-08	1.3617552e-07	8.9919195e-07	0.0	24137	9.462373733520508	2788.5017745494843
187	-11036.407664916478	61	0.0022382054	0.038441177	0.1266023	-180.92471	2.9140263	-180.52432	-203.49652	4.9413533e-08	2.7388094e-07	1.2055971e-06	-9.043142e-07	24198	9.743951559066772	2798.2496955394745
188	-12327.750172406435	61	0.0023524435	0.04001868	0.1266023	-202.09427	3.8934023	-201.5481	-232.25223	0.0	7.0561504e-07	3.8968865e-06	-3.8968865e-06	24259	10.24794888496399	2808.5006415843964
189	-11311.382506085094	61	0.00229519	0.039815508	0.1266023	-185.43253	0.019238276	-185.3756	-185.4764	2.4569358e-08	1.3617553e-07	8.9919195e-07	0.0	24320	9.803276300430298	2818.3069162368774
190	-17482.352538739797	96	0.0026235678	0.47152185	0.1266023	-182.10785	47.88311	-74.9203	-376.25266	4.070707e-06	2.7103299e-05	0.000262924	-1.7946586e-06	24416	12.699058055877686	2831.007973432541
191	-11437.364922733512	61	0.0022162017	0.04402622	0.1266023	-187.49777	12.694213	-89.168915	-189.1697	9.881943e-09	7.654521e-08	6.0279854e-07	0.0	24477	9.216708660125732	2840.2276799678802
192	-10583.897658564616	61	0.0022861974	0.091715366	0.1266023	-173.50653	21.9136	-77.88878	-200.59422	1.5725229e-07	6.250365e-07	3.8968865e-06	-2.9988587e-07	24538	9.261635303497314	2849.492314338684
193	-12711.143616165034	61	0.0022808015	0.04436241	0.1266023	-208.37938	3.4188101	-207.89674	-234.861	4.9138716e-08	3.4405187e-07	2.6978087e-06	0.0	24599	9.463449478149414	2858.9587621688843
194	-11403.471882544924	61	0.0023011852	0.038777437	0.1266023	-186.94217	3.5935576	-186.4432	-214.77756	9.828507e-09	1.3259381e-07	5.995389e-07	-5.995389e-07	24660	10.35348916053772	2869.3152074813843
195	-11582.092860238161	61	0.002215599	0.06915236	0.1266023	-189.87035	18.237331	-92.61738	-220.15881	9.881943e-09	1.3331471e-07	6.0279854e-07	-6.0279854e-07	24721	9.198973417282104	2878.516179561615
196	-10807.405347547494	61	0.0023116765	0.05572025	0.1266023	-177.1706	17.78821	-80.49842	-180.56328	5.405488e-08	2.271093e-07	1.4987309e-06	0.0	24782	9.389865159988403	2887.909029006958
197	-11411.865154877305	61	0.0023095782	0.05015217	0.1266023	-187.07977	15.672908	-87.5643	-258.26328	0.0	1.08559405e-07	5.995389e-07	-5.995389e-07	24843	9.537734985351562	2897.4497237205505
198	-11936.32672464149	61	0.00224573	0.044033095	0.1266023	-195.67749	3.4010117	-195.20027	-222.02129	6.405896e-08	3.6573255e-07	2.1092128e-06	-6.0279854e-07	24904	10.394927978515625	2907.8476502895355
199	-10584.770437070169	61	0.0022634158	0.03765115	0.1266023	-173.52081	4.4082327	-172.89545	-207.66641	1.9657014e-08	1.5226259e-07	1.1990778e-06	0.0	24965	9.331852197647095	2917.182501077652
200	-11571.583705441095	61	0.002316173	0.03515597	0.1266023	-189.6981	0.015636181	-189.66502	-189.73393	1.9657014e-08	1.5226257e-07	1.1990778e-06	0.0	25026	9.932132482528687	2927.1176011562347
201	-11418.77082961332	61	0.0022820006	0.040187504	0.1266023	-187.19296	25.541767	-183.47511	-383.53122	4.9138716e-08	2.7235106e-07	1.7983839e-06	-5.995389e-07	25087	9.63296627998352	2936.7535655498505
202	-10946.855305653997	61	0.0022685116	0.10026473	0.1266023	-179.45662	17.801367	-82.66786	-182.80847	8.8452744e-08	6.543621e-07	4.1965395e-06	-1.7986167e-06	25148	9.391322612762451	2946.1478865146637
203	-11896.064582055435	61	0.0022936913	0.037663475	0.1266023	-195.01746	2.6582708	-194.64453	-215.60785	3.4397864e-08	3.4370532e-07	2.0982698e-06	-1.1990778e-06	25209	10.605753183364868	2956.756637096405
204	-11325.062805629335	61	0.0022439316	0.056806225	0.1266023	-185.65678	13.092448	-86.939095	-210.52689	9.3872735e-08	4.1753287e-07	2.1099113e-06	0.0	25270	9.65411639213562	2966.41375207901
205	-11758.514653787948	61	0.002291593	0.03395867	0.1266023	-192.76256	25.500732	-189.09312	-389.1587	1.9657014e-08	1.5226257e-07	1.1990778e-06	0.0	25331	9.928120851516724	2976.345869779587
206	-18835.799535244703	98	0.002353043	0.34842643	0.1266023	-192.20203	47.88209	-83.90086	-386.67783	1.2241e-06	4.383781e-06	2.517947e-05	-2.3979228e-06	25429	12.647058248519897	2988.9948976039886
207	-11318.875286862254	61	0.0022382054	0.03992807	0.1266023	-185.55534	0.016289176	-185.52647	-185.59218	0.0	3.0872178e-07	1.2055971e-06	-1.2055971e-06	25490	9.730952262878418	2998.7288479804993
208	-11941.180164307356	61	0.0022736075	0.038784258	0.1266023	-195.75705	13.001334	-97.038826	-217.31898	0.0	1.6281803e-07	8.9919195e-07	-8.9919195e-07	25551	10.031094312667847	3008.7629408836365
209	-12116.5507269823	61	0.0021785244	0.123619966	0.1266023	-198.63197	58.62807	-85.38149	-385.71722	3.5577668e-07	1.2828983e-06	8.741161e-06	-9.043142e-07	25612	9.38660740852356	3018.1525464057922
210	-12273.7233112026	61	0.002333259	0.06762249	0.1266023	-201.2086	13.164985	-102.38147	-227.99075	1.0319359e-07	6.6892176e-07	4.4964254e-06	-1.4987309e-06	25673	9.425771474838257	3027.5813162326813
211	-11429.924439145718	61	0.0022736075	0.039625365	0.1266023	-187.37582	0.0150048705	-187.33543	-187.4065	4.4226372e-08	2.417378e-07	1.4987309e-06	0.0	25734	9.54741096496582	3037.131725549698
212	-11976.984281829558	61	0.0022703102	0.047043968	0.1266023	-196.34401	15.150345	-96.49842	-253.6023	5.405488e-08	3.046709e-07	2.0982698e-06	0.0	25795	9.52950406074524	3046.6632282733917
213	-11277.116231872234	61	0.0022942908	0.044927455	0.1266023	-184.87076	0.019709742	-184.82388	-184.90273	4.4226372e-08	2.4174724e-07	1.7986167e-06	0.0	25856	10.166270971298218	3056.832467317581
214	-11821.420014560223	61	0.002222833	0.060800243	0.1266023	-193.79376	12.699008	-95.42775	-195.46826	0.0	5.4579033e-07	3.0142255e-06	-3.0142255e-06	25917	9.714012384414673	3066.54847741127
215	-11704.088958049659	61	0.0022640154	0.046317097	0.1266023	-191.87032	7.3458767	-190.51524	-240.04561	4.9142532e-08	2.8813668e-07	2.0982698e-06	0.0	25978	9.403023481369019	3075.9534990787506
216	-11951.823049250524	61	0.0022936913	0.26221463	0.1266023	-195.93155	51.793278	-99.10449	-399.8099	4.1769437e-07	1.3658865e-06	4.7960784e-06	-4.7960784e-06	26039	9.337903261184692	3085.2943999767303
217	-18484.888580202125	103	0.0024747443	0.67284805	0.1266023	-179.46495	51.654377	-86.84074	-388.11227	1.964426e-06	4.3736613e-06	2.6378548e-05	-1.1990778e-06	26142	13.017104387283325	3098.31450176239
218	-11166.224570145365	61	0.00224573	0.056025304	0.1266023	-183.05286	12.699176	-84.68555	-184.73192	9.8647675e-08	4.3496888e-07	2.1099113e-06	0.0	26203	10.508007764816284	3108.8255076408386
219	-10987.651480797678	61	0.0022532241	0.09840803	0.1266023	-180.12543	21.891697	-84.63628	-207.63649	7.8628055e-08	4.406157e-07	2.3979228e-06	-1.1990778e-06	26264	9.598053455352783	3118.425560235977
220	-11237.087758256588	61	0.0023731268	0.16329937	0.1266023	-184.21457	41.688046	-82.41004	-382.53207	4.029535e-07	2.4248434e-06	1.7985236e-05	-3.5970006e-06	26325	9.596604585647583	3128.02516245842
221	-11345.963529089466	61	0.0022294642	0.03565016	0.1266023	-185.9994	0.019885324	-185.9593	-186.04227	1.4824823e-08	1.1483258e-07	9.043142e-07	0.0	26386	9.662974834442139	3137.6921048164368
222	-11538.700441549066	61	0.0023269642	0.06082518	0.1266023	-189.15903	12.703755	-90.75695	-191.16809	1.13022104e-07	6.51701e-07	4.4964254e-06	-5.995389e-07	26447	9.31277585029602	3147.007882118225
223	-11038.996095550712	61	0.0022984874	0.038766116	0.1266023	-180.96718	0.01450644	-180.94371	-181.01025	2.4569358e-08	2.1909895e-07	1.4987309e-06	-5.995389e-07	26508	9.954500198364258	3156.965351343155
224	-11171.783504884224	61	0.0022439316	0.0415572	0.1266023	-183.14398	4.8532157	-182.48445	-220.73668	6.916597e-08	3.057234e-07	2.1092128e-06	0.0	26569	9.56373906135559	3166.5320608615875
225	-11516.449308065232	61	0.0022984874	0.03659301	0.1266023	-188.79425	0.010886925	-188.7737	-188.8229	2.4569358e-08	3.3145878e-07	1.4987309e-06	-1.4987309e-06	26630	9.353623390197754	3175.8886818885803
226	-15524.380721398164	86	0.0027240717	0.67839557	0.1266023	-180.51605	35.767303	-78.186874	-379.20328	5.75125e-06	3.832439e-05	0.00035517453	-1.7948914e-06	26716	11.828551292419434	3187.7211668491364
227	-9411.827208854258	61	0.0023800211	0.84784454	0.1266023	-154.29227	60.735912	-80.52115	-382.5295	2.3446123e-06	4.153468e-06	1.9783853e-05	-4.1967724e-06	26777	10.332955598831177	3198.0571212768555
228	-10747.922399162315	61	0.0024165914	0.45768946	0.1266023	-176.19545	44.817104	-87.01213	-387.61758	1.3955869e-06	4.4876115e-06	2.098293e-05	-5.3956173e-06	26838	9.932381868362427	3207.9925014972687
229	-11517.236822594889	61	0.0022649146	0.03332037	0.1266023	-188.80719	0.015531052	-188.76712	-188.83629	1.4740851e-08	1.9889947e-07	8.994248e-07	-8.994248e-07	26899	9.629488229751587	3217.623988389969
230	-12226.817654611077	61	0.002277804	0.21443413	0.1266023	-200.4396	61.73045	-86.108444	-387.1696	5.258041e-07	1.9954957e-06	1.3489043e-05	-2.6978087e-06	26960	10.43721342086792	3228.0642001628876
231	-11541.183041564655	61	0.0022724085	0.12771305	0.1266023	-189.19972	42.318123	-83.71226	-383.83228	2.0147485e-07	6.4387564e-07	2.6978087e-06	-1.1990778e-06	27021	9.332032680511475	3237.3991951942444
232	-11796.669449282344	61	0.002290394	0.47124648	0.1266023	-193.38805	65.88003	-91.73978	-391.94055	1.132263e-06	2.7495305e-06	1.2589851e-05	-3.8968865e-06	27082	9.40803575515747	3246.810228586197
233	-11181.700305457693	61	0.0023677312	0.6501282	0.1266023	-183.30656	50.610455	-92.16187	-292.702	1.9066501e-06	2.899187e-06	1.19903125e-05	-3.8968865e-06	27143	9.869295597076416	3256.682522535324
234	-11791.78977001179	84	0.0033891294	2.5160358	0.1266023	-140.37845	59.914177	-75.34971	-375.5303	1.3515547e-05	4.912862e-05	0.00044300663	-2.394896e-06	27227	11.762227535247803	3268.4487478733063
235	-39391.51095364569	248	0.0048364257	2.2528434	0.1266023	-158.83675	69.60226	-58.619564	-381.18585	1.0481556e-05	4.514636e-05	0.0006236837	-3.2973476e-06	27475	23.632052659988403	3292.083771944046
236	-10463.113376668654	61	0.0023311607	0.20236616	0.1266023	-171.52644	31.883867	-82.76731	-183.23811	4.7666157e-07	1.2905975e-06	6.594695e-06	-5.995389e-07	27536	9.2997567653656	3301.386526107788
237	-11914.1063618958	61	0.0022936913	0.05152036	0.1266023	-195.31322	13.467151	-96.42943	-230.18033	0.0	0.0	0.0	0.0	27597	9.228097915649414	3310.6176228523254
238	-12037.357487696689	61	0.0023005856	0.045645725	0.1266023	-197.33374	0.014936919	-197.29942	-197.36154	5.8967224e-08	2.6489784e-07	1.4987309e-06	0.0	27658	10.200829982757568	3320.821451663971
239	-10979.751737166662	61	0.0022882957	0.040523533	0.1266023	-179.99591	0.01845127	-179.95529	-180.03984	1.4744669e-08	1.9891647e-07	8.994248e-07	-8.994248e-07	27719	9.595880508422852	3330.420330286026
240	-11425.44759529084	61	0.00223278	0.057416327	0.1266023	-187.3024	13.00391	-88.56981	-208.89368	1.13651886e-07	6.15479e-07	2.411427e-06	-2.411427e-06	27780	9.579989433288574	3340.0033173561096
241	-11653.864040637389	61	0.0022149961	0.04388012	0.1266023	-191.04695	0.01523049	-191.01637	-191.09064	6.917742e-08	5.35846e-07	4.2198226e-06	0.0	27841	9.528909921646118	3349.5352263450623
242	-11207.62124802731	61	0.0022984874	0.04679159	0.1266023	-183.73148	13.338697	-84.67527	-206.66312	3.4397864e-08	3.1695097e-07	1.4987309e-06	-1.1990778e-06	27902	10.330108404159546	3359.868332386017
243	-10947.95019750297	61	0.0023149739	0.036168892	0.1266023	-179.47461	2.6664343	-179.09894	-200.12846	0.0	0.0	0.0	0.0	27963	9.424822330474854	3369.2961061000824
244	-10982.178622284904	61	0.0022149961	0.03422234	0.1266023	-180.03572	2.9584613	-179.62955	-202.95163	1.4824823e-08	1.3835115e-07	6.0279854e-07	-6.0279854e-07	28024	9.429407596588135	3378.72851395607
245	-11290.386537482962	61	0.0022745067	0.03430598	0.1266023	-185.08832	4.7829237	-184.44237	-222.13657	3.4397864e-08	1.8879071e-07	1.1990778e-06	0.0	28085	9.899634599685669	3388.631145954132
246	-11843.798907732591	61	0.0023005856	0.039179876	0.1266023	-194.16068	0.012940265	-194.12413	-194.18947	3.4397864e-08	1.8879071e-07	1.1990778e-06	0.0	28146	9.62797999382019	3398.2630734443665
247	-11671.738014097791	61	0.0021908826	0.039586205	0.1266023	-191.33995	0.01494049	-191.30098	-191.37357	2.4706766e-08	1.9137778e-07	1.5071128e-06	0.0	28207	10.80437183380127	3409.071443080902
248	-12005.404644194059	61	0.0022382054	0.045543622	0.1266023	-196.80989	0.016533801	-196.76335	-196.85027	1.9763887e-08	1.5309043e-07	1.2055971e-06	0.0	28268	9.63321304321289	3418.70765376091
249	-11911.613892756868	61	0.00224573	0.035024494	0.1266023	-195.27235	25.398083	-191.96054	-392.00504	6.405896e-08	4.7737353e-07	2.1092128e-06	-1.7983839e-06	28329	9.82204818725586	3428.5326986312866
250	-12457.129048286472	61	0.0022484278	0.03929369	0.1266023	-204.21521	0.01292128	-204.18661	-204.25133	4.4226372e-08	3.42576e-07	2.6978087e-06	0.0	28390	9.54261565208435	3438.078312397003
251	-11840.157583688851	61	0.0022829	0.03169629	0.1266023	-194.10094	0.01641714	-194.06493	-194.14542	3.4401683e-08	2.0382198e-07	1.4989637e-06	0.0	28451	10.021527767181396	3448.1026813983917
252	-11829.029864669777	61	0.0022369998	0.0321597	0.1266023	-193.91853	2.6395533	-193.53952	-214.36395	6.423836e-08	3.4996825e-07	2.1099113e-06	0.0	28512	9.399911165237427	3457.5055906772614
253	-12313.640593568329	61	0.0022984874	0.07381372	0.1266023	-201.86295	12.651915	-103.86783	-203.79361	1.13022104e-07	7.163038e-07	3.2973476e-06	-2.6978087e-06	28573	9.672279119491577	3467.1815462112427
254	-11811.490266829729	61	0.0022382054	0.037017647	0.1266023	-193.63097	0.0155203445	-193.59799	-193.67056	0.0	0.0	0.0	0.0	28634	9.499307632446289	3476.6838240623474
255	-11946.885370379314	61	0.0022936913	0.04684885	0.1266023	-195.85057	7.0341897	-194.61223	-245.28033	3.4397864e-08	2.6644472e-07	2.0982698e-06	0.0	28695	9.73224663734436	3486.419068336487
256	-11423.827913314104	61	0.0022538234	0.03930386	0.1266023	-187.27586	0.014834528	-187.23457	-187.3121	0.0	0.0	0.0	0.0	28756	10.224509716033936	3496.6465616226196
257	-10900.372184226755	61	0.002305082	0.16255373	0.1266023	-178.69463	31.193422	-75.4266	-375.5527	3.341578e-07	1.0991645e-06	6.594695e-06	-8.9919195e-07	28817	10.013078212738037	3506.6626381874084
258	-11941.223687386606	61	0.0031577293	0.060513463	0.1266023	-195.75777	3.6100416	-195.24832	-223.72046	4.1664087e-05	0.00032272856	0.0025415092	0.0	28878	13.16970419883728	3519.836339712143
259	-11057.813779789954	61	0.0022861974	0.05244823	0.1266023	-181.27565	2.8065546	-180.75198	-203.01424	7.8628055e-08	4.790806e-07	3.2973476e-06	-8.994248e-07	28939	10.369194507598877	3530.2095324993134
260	-11500.301793270279	61	0.0022490274	0.041117143	0.1266023	-188.52953	17.808353	-91.78839	-191.83693	9.828507e-09	7.6131286e-08	5.995389e-07	0.0	29000	10.24769401550293	3540.461224079132
261	-11736.336977147032	61	0.0022942908	0.03658803	0.1266023	-192.39899	4.7403235	-191.75473	-229.11722	9.828507e-09	7.613129e-08	5.995389e-07	0.0	29061	9.65923261642456	3550.124423980713
262	-12190.579468043521	61	0.0022514255	0.034172073	0.1266023	-199.84558	0.011767516	-199.82304	-199.88	3.9314028e-08	3.0452517e-07	2.3981556e-06	0.0	29122	9.730379104614258	3559.8578023910522
263	-10981.703092521057	61	0.002316173	0.043508034	0.1266023	-180.02791	3.9153314	-179.49156	-210.3558	3.4397864e-08	2.4930227e-07	1.1990778e-06	-8.9919195e-07	29183	9.36079216003418	3569.2215967178345
264	-11473.18844885705	61	0.0022294642	0.03495545	0.1266023	-188.08505	4.349127	-187.48686	-221.77278	2.4706766e-08	2.1346027e-07	9.043142e-07	-9.043142e-07	29244	9.32919192314148	3578.5537402629852
265	-12110.178229833953	61	0.00230748	0.051860835	0.1266023	-198.5275	12.689314	-100.236626	-200.20955	4.9138716e-08	6.6291756e-07	2.9974617e-06	-2.9974617e-06	29305	10.23806619644165	3588.7948043346405
266	-11124.955340757966	61	0.0022490274	0.03564135	0.1266023	-182.37631	12.699243	-84.00849	-184.05228	0.0	1.08559405e-07	5.995389e-07	-5.995389e-07	29366	9.690122127532959	3598.4879245758057
267	-11152.430741772056	61	0.002316173	0.048022553	0.1266023	-182.82677	12.699317	-84.45828	-184.49113	0.0	3.760608e-07	1.1990778e-06	-2.3981556e-06	29427	9.229968309402466	3607.7198915481567
268	-11334.209312300663	61	0.002215599	0.02944398	0.1266023	-185.8067	12.699776	-87.43472	-187.48274	2.4706766e-08	1.7511805e-07	9.043142e-07	-6.0279854e-07	29488	10.277734279632568	3617.999624490738
269	-11573.878419697285	61	0.0022514255	0.03585946	0.1266023	-189.73572	2.7302148	-189.34827	-210.88316	0.0	0.0	0.0	0.0	29549	9.523496627807617	3627.526118516922
270	-11343.700036590919	61	0.002290394	0.042060103	0.1266023	-185.9623	0.0138499895	-185.94055	-185.99614	3.4397864e-08	6.214662e-07	2.0982698e-06	-2.0982698e-06	29610	10.236384630203247	3637.7664544582367
271	-10960.433844862971	61	0.0023242664	0.054472443	0.1266023	-179.67924	13.661484	-80.43248	-208.14589	4.4226372e-08	2.8637746e-07	1.1990778e-06	-1.1990778e-06	29671	9.202864646911621	3646.972316980362
272	-11849.26381623745	61	0.0022757058	0.028423116	0.1266023	-194.25024	0.010940749	-194.22551	-194.27808	0.0	1.6281803e-07	8.9919195e-07	-8.9919195e-07	29732	9.57241415977478	3656.547729730606
273	-11945.705232371576	61	0.0022577203	0.03419582	0.1266023	-195.83125	0.017353028	-195.79042	-195.87007	1.4740851e-08	1.14182136e-07	8.9919195e-07	0.0	29793	9.558777093887329	3666.1105041503906
274	-11467.245528208092	61	0.0022790032	0.04453779	0.1266023	-187.98763	0.011434801	-187.95511	-188.01006	3.9314028e-08	1.9172487e-07	1.1990778e-06	0.0	29854	10.021037817001343	3676.1345398426056
275	-11045.504841050133	61	0.0023404532	0.049283903	0.1266023	-181.07385	5.955169	-180.25305	-227.20207	3.4397864e-08	2.8771947e-07	1.1990778e-06	-1.1990778e-06	29915	9.389148950576782	3685.5276861190796
276	-11317.543198829517	61	0.002276605	0.035639048	0.1266023	-185.5335	2.5849895	-185.1638	-205.55632	3.4397864e-08	1.8879072e-07	1.1990778e-06	0.0	29976	10.30102276802063	3695.831706762314
277	-11776.913182323799	61	0.0022757058	0.044705022	0.1266023	-193.06413	0.02078267	-193.00787	-193.1184	3.4397864e-08	1.8879072e-07	1.1990778e-06	0.0	30037	9.349295616149902	3705.184000492096
278	-11707.817351340782	61	0.0022577203	0.04403872	0.1266023	-191.93143	20.966204	-189.19925	-354.3349	6.3883384e-08	3.955857e-07	2.9976945e-06	0.0	30098	9.331012487411499	3714.5170090198517
279	-10933.106885679532	61	0.0022490274	0.046867035	0.1266023	-179.23131	0.017101547	-179.18936	-179.2633	9.828507e-09	7.613129e-08	5.995389e-07	0.0	30159	10.131777286529541	3724.6507852077484
280	-11518.241391437594	61	0.0022538234	0.052722357	0.1266023	-188.82364	12.697609	-90.46895	-190.53926	3.931021e-08	1.5801582e-07	8.994248e-07	0.0	30220	9.112907409667969	3733.766661643982
281	-11913.668097287416	61	0.0022936913	0.034594424	0.1266023	-195.30603	3.4845092	-194.83156	-222.29665	0.0	0.0	0.0	0.0	30281	9.647702693939209	3743.417362689972
282	-11275.744000447448	61	0.0022685116	0.044672262	0.1266023	-184.84827	2.9964275	-184.42395	-208.05801	2.4569358e-08	1.9032547e-07	1.1990778e-06	-5.995389e-07	30342	8.931384563446045	3752.352745294571
283	-11445.70233870484	61	0.0022294642	0.03558382	0.1266023	-187.63446	0.016047386	-187.59656	-187.67207	1.4824823e-08	1.9999783e-07	9.043142e-07	-9.043142e-07	30403	10.222797155380249	3762.5785422325134
284	-11345.930268501863	61	0.002277804	0.041198827	0.1266023	-185.99884	0.01589846	-185.96568	-186.04005	3.4397864e-08	1.6370944e-07	8.9919195e-07	0.0	30464	9.33471155166626	3771.915251493454
285	-10914.92230665125	61	0.0023149739	0.04524357	0.1266023	-178.93315	0.01771778	-178.89195	-178.9755	2.9481702e-08	2.2836427e-07	8.9919195e-07	-8.9919195e-07	30525	9.579000473022461	3781.497250318527
286	-11241.514348348603	61	0.002290394	0.04429696	0.1266023	-184.28711	12.701158	-85.904465	-185.9563	3.4397864e-08	2.6644472e-07	2.0982698e-06	0.0	30586	9.891322374343872	3791.3915712833405
287	-11605.464679207187	61	0.0022294642	0.045241814	0.1266023	-190.25351	14.823863	-90.6559	-245.35152	2.4706766e-08	1.3694047e-07	9.043142e-07	0.0	30647	9.156985998153687	3800.551527738571
288	-12020.499180984218	61	0.0023731268	0.35400242	0.1266023	-197.05736	44.634666	-92.666885	-393.43118	9.3367e-07	3.2675237e-06	1.4987774e-05	-3.5972334e-06	30708	10.573450565338135	3811.126976966858
289	-11929.542970261537	61	0.0023116765	0.041250296	0.1266023	-195.56628	2.8904667	-195.15941	-217.9553	5.405488e-08	2.8467386e-07	2.0982698e-06	0.0	30769	9.496591567993164	3820.6255345344543
290	-11382.477594489697	61	0.002290394	0.04356225	0.1266023	-186.598	7.8545113	-185.18913	-240.17291	4.9142532e-08	3.3097763e-07	2.0982698e-06	-8.994248e-07	30830	9.50456190109253	3830.1330947875977
291	-11156.250074290205	61	0.0023242664	0.03682008	0.1266023	-182.88934	13.059587	-84.14366	-206.4967	9.828507e-09	7.613129e-08	5.995389e-07	0.0	30891	9.323224544525146	3839.4593183994293
292	-11317.642763231415	61	0.0022640154	0.038616315	0.1266023	-185.53514	0.015909337	-185.50981	-185.57172	1.4744669e-08	1.1421171e-07	8.994248e-07	0.0	30952	10.227752923965454	3849.6900680065155
293	-11796.410639116075	61	0.002268212	0.041538723	0.1266023	-193.38379	2.9659367	-192.96243	-216.35753	2.948552e-08	2.7519818e-07	1.1990778e-06	-1.1990778e-06	31013	9.332471370697021	3859.026537656784
294	-11787.505292200018	61	0.0022942908	0.038086884	0.1266023	-193.23778	0.019709457	-193.19832	-193.27957	9.828507e-09	7.6131286e-08	5.995389e-07	0.0	31074	9.780348300933838	3868.8098838329315
295	-11672.76208508946	61	0.0023836181	0.040204085	0.1266023	-191.35674	0.019727621	-191.30785	-191.4045	2.9481702e-08	2.2836427e-07	1.7983839e-06	0.0	31135	9.83164358139038	3878.6445236206055
296	-11654.70189660089	61	0.0022942908	0.040482834	0.1266023	-191.06065	4.216237	-190.47878	-223.71915	9.828507e-09	7.6131286e-08	5.995389e-07	0.0	31196	9.363817691802979	3888.011339902878
297	-11964.380344056524	61	0.0022330813	0.03713085	0.1266023	-196.13739	0.013690095	-196.09576	-196.1728	4.9390634e-09	3.825782e-08	3.0128285e-07	0.0	31257	10.14333176612854	3898.1576693058014
298	-11471.500722393394	61	0.0022107763	0.043295708	0.1266023	-188.05737	12.997667	-89.346504	-209.51167	0.0	0.0	0.0	0.0	31318	9.673707246780396	3907.834375143051
299	-10995.582584622782	61	0.0022882957	0.10097708	0.1266023	-180.25546	13.07047	-81.5547	-204.44241	2.0639101e-07	8.277084e-07	5.39585e-06	0.0	31379	9.467439889907837	3917.304797410965
300	-11966.310804653447	61	0.0023005856	0.042129442	0.1266023	-196.16904	12.699635	-97.79813	-197.84389	5.8967224e-08	2.6489784e-07	1.4987309e-06	0.0	31440	9.93254280090332	3927.2403383255005
301	-11915.758639297448	61	0.0022936913	0.035793744	0.1266023	-195.34032	0.017968683	-195.29387	-195.38445	5.405488e-08	3.0467095e-07	2.0982698e-06	0.0	31501	10.26421332359314	3937.5075500011444
302	-11184.636081612669	61	0.0022523247	0.05294755	0.1266023	-183.35469	14.931219	-83.96292	-244.14357	5.405488e-08	3.1420345e-07	1.1990778e-06	-1.1990778e-06	31562	9.933139085769653	3947.4436588287354
303	-11373.318474453874	61	0.0022351912	0.037689433	0.1266023	-186.44783	0.012918038	-186.42426	-186.48149	3.458871e-08	1.8983465e-07	1.2055971e-06	0.0	31623	9.499372243881226	3956.947011947632
304	-11412.622210645583	61	0.002259519	0.033538334	0.1266023	-187.09218	3.3329663	-186.63556	-212.90897	2.948552e-08	1.6909603e-07	1.1990778e-06	0.0	31684	9.663559913635254	3966.6145696640015
305	-11269.061048144475	61	0.0022149961	0.045785192	0.1266023	-184.73868	0.019492947	-184.68758	-184.79005	6.917742e-08	2.8039523e-07	1.5071128e-06	0.0	31745	9.006314992904663	3975.623860359192
306	-11241.630532658659	61	0.0022736075	0.03525772	0.1266023	-184.28903	5.323502	-183.57312	-225.5246	5.405488e-08	2.7413307e-07	1.4987309e-06	-5.995389e-07	31806	10.777469873428345	3986.4043283462524
307	-11613.871600210667	61	0.002290394	0.03748978	0.1266023	-190.39134	3.3639054	-189.90175	-216.44759	0.0	0.0	0.0	0.0	31867	9.53133511543274	3995.938661813736
308	-11137.109529546462	61	0.0022610177	0.042644605	0.1266023	-182.57556	0.01648532	-182.5255	-182.61281	5.405488e-08	2.397363e-07	1.1990778e-06	-5.995389e-07	31928	9.971517324447632	4005.913148880005
309	-11354.518358042464	61	0.0022984874	0.03876085	0.1266023	-186.13965	4.1296673	-185.58066	-218.12776	3.4397864e-08	2.0379458e-07	1.4987309e-06	0.0	31989	9.898586750030518	4015.815845489502
310	-10941.166663704906	61	0.0023101778	0.037699495	0.1266023	-179.36339	5.6740656	-178.31342	-217.23433	4.4226372e-08	1.7022515e-07	8.9919195e-07	0.0	32050	10.935761451721191	4026.7546048164368
311	-11103.700877493247	61	0.0022882957	0.0383107	0.1266023	-182.02786	4.8936396	-181.07632	-210.36388	3.4397864e-08	1.544638e-07	8.994248e-07	0.0	32111	9.296017408370972	4036.053676366806
312	-10621.435488694813	61	0.0022808015	0.041357316	0.1266023	-174.12187	12.6726465	-75.96059	-175.9768	1.9653196e-08	1.8698826e-07	5.995389e-07	-5.995389e-07	32172	9.796704530715942	4045.852379798889
313	-11748.27048099041	61	0.0022484278	0.037209056	0.1266023	-192.59462	0.013720648	-192.56996	-192.62117	0.0	4.8849626e-07	2.6978087e-06	-2.6978087e-06	32233	9.499412536621094	4055.3547909259796
314	-11856.710774181876	61	0.0022484278	0.036119368	0.1266023	-194.37231	0.016450116	-194.33179	-194.41418	4.4226372e-08	3.42576e-07	2.6978087e-06	0.0	32294	10.131638526916504	4065.4894273281097
315	-11055.681198107079	61	0.002317372	0.038009338	0.1266023	-181.24068	3.092169	-180.80643	-205.1923	3.9314028e-08	2.1352983e-07	1.1990778e-06	0.0	32355	10.32933259010315	4075.8207590579987
316	-10640.55342647992	61	0.0022619169	0.041643266	0.1266023	-174.43527	0.011911353	-174.40178	-174.46378	3.4397864e-08	1.09871024e-07	2.9988587e-07	-2.9965304e-07	32416	9.493786334991455	4085.3175418376923
317	-11399.911204488017	61	0.0022808015	0.050248813	0.1266023	-186.88379	4.389094	-186.27945	-220.88133	8.3536584e-08	3.1240984e-07	1.7983839e-06	0.0	32477	9.250923156738281	4094.571682214737
318	-11953.078331464436	61	0.00223278	0.04047821	0.1266023	-195.9521	0.019217735	-195.90393	-196.00342	6.918123e-08	4.3457115e-07	3.3157412e-06	0.0	32538	9.966010808944702	4104.539694070816
319	-11893.25285481941	61	0.0022808015	0.035348825	0.1266023	-194.97134	0.01268311	-194.93933	-195.00471	4.9138716e-08	4.139775e-07	1.7983839e-06	-1.7983839e-06	32599	9.793768882751465	4114.336461305618
320	-11188.077952400781	61	0.0022757058	0.030658182	0.1266023	-183.41112	2.8862903	-183.01512	-205.76802	1.9657014e-08	1.5226259e-07	1.1990778e-06	0.0	32660	10.398812532424927	4124.738271951675
321	-10975.473037031945	61	0.0022897944	0.034634724	0.1266023	-179.92578	0.014558558	-179.89008	-179.95737	2.4569358e-08	1.9031344e-07	1.4987309e-06	0.0	32721	9.655729532241821	4134.396999120712
322	-12042.861621290445	61	0.0022382054	0.030940056	0.1266023	-197.42395	0.017443126	-197.39499	-197.46481	0.0	0.0	0.0	0.0	32782	9.912627935409546	4144.311625003815
323	-10806.249012965243	61	0.0022897944	0.04894129	0.1266023	-177.15163	0.014364712	-177.11916	-177.18282	5.8967224e-08	2.1588758e-07	1.1990778e-06	0.0	32843	9.200143098831177	4153.514764547348
324	-10949.223094224464	61	0.0022829	0.045026496	0.1266023	-179.49545	12.70106	-81.11353	-181.1742	6.3883384e-08	2.4940854e-07	1.198845e-06	-5.995389e-07	32904	10.412702322006226	4163.930464982986
325	-11694.448645146564	61	0.0022514255	0.039617684	0.1266023	-191.71227	7.8649063	-190.23207	-235.18045	3.9314028e-08	3.0452517e-07	2.3981556e-06	0.0	32965	9.458866834640503	4173.3923308849335
326	-11845.405142501928	61	0.0022757058	0.03171656	0.1266023	-194.18697	0.015101877	-194.14426	-194.23068	1.9657014e-08	1.5226257e-07	1.1990778e-06	0.0	33026	9.897815942764282	4183.29314494133
327	-11315.305251689628	61	0.002263116	0.05548683	0.1266023	-185.49683	12.69516	-87.16063	-187.17688	1.0319359e-07	4.7591857e-07	2.6978087e-06	-8.9919195e-07	33087	9.659009218215942	4192.955132722855
328	-11680.537729166914	61	0.00224573	0.043322887	0.1266023	-191.48424	7.339981	-190.21532	-244.13971	6.405896e-08	3.490654e-07	2.1092128e-06	0.0	33148	9.459691047668457	4202.417876005173
329	-12088.676724319812	61	0.0022829	0.037267935	0.1266023	-198.17503	0.013418698	-198.14365	-198.20242	3.4401683e-08	2.0382198e-07	1.4989637e-06	0.0	33209	10.479631662368774	4212.901475429535
330	-11222.594899258576	61	0.002338355	0.035203718	0.1266023	-183.97696	0.011725207	-183.95682	-184.0031	5.405488e-08	2.9484588e-07	1.7986167e-06	0.0	33270	9.497944593429565	4222.402418613434
331	-11236.93445447972	61	0.0022969886	0.03481743	0.1266023	-184.21204	12.698272	-85.85173	-185.8898	2.948552e-08	1.6909603e-07	1.1990778e-06	0.0	33331	10.031946897506714	4232.437363386154
332	-11612.71609221911	61	0.0022583199	0.06638685	0.1266023	-190.37239	14.663381	-90.250084	-230.57475	9.828125e-08	6.1582386e-07	4.4964254e-06	-8.994248e-07	33392	9.22707748413086	4241.667439222336
333	-11018.863971680403	61	0.0022490274	0.031264912	0.1266023	-180.63712	13.136498	-81.87469	-206.77524	0.0	2.1711881e-07	1.1990778e-06	-1.1990778e-06	33453	10.69667673110962	4252.367114067078
334	-20087.303311600816	109	0.002514312	0.1724542	0.1266023	-184.28719	12.939261	-83.22389	-248.98328	2.092795e-06	1.8297671e-05	0.00019034557	-5.9951562e-06	33562	14.12695860862732	4266.4970703125
335	-11311.51969891088	61	0.0022294642	0.03602827	0.1266023	-185.43475	2.6423328	-185.0691	-205.90198	5.9295477e-08	2.9803735e-07	2.1099113e-06	0.0	33623	9.842531204223633	4276.342600107193
336	-11270.10489961598	61	0.0022736075	0.030552126	0.1266023	-184.75583	3.8511157	-184.22043	-214.58615	1.9657014e-08	1.5226259e-07	1.1990778e-06	0.0	33684	9.729854345321655	4286.075450897217
337	-11952.35008544242	61	0.0022745067	0.057201155	0.1266023	-195.94016	45.42603	-87.75538	-387.73682	9.828125e-08	3.5059162e-07	1.7986167e-06	0.0	33745	9.596993446350098	4295.675392627716
338	-11094.677973737009	61	0.0023053817	0.032703847	0.1266023	-181.87996	0.013324035	-181.84969	-181.90834	1.4740851e-08	1.14182136e-07	8.9919195e-07	0.0	33806	10.643424987792969	4306.321815490723
339	-11896.172992760781	61	0.0022514255	0.04390922	0.1266023	-195.01921	0.015947318	-194.97989	-195.0514	4.9142532e-08	3.1266396e-07	2.3981556e-06	0.0	33867	9.785744190216064	4316.110556840897
340	-11681.047799000517	61	0.00224573	0.036138847	0.1266023	-191.49258	2.541476	-191.1393	-211.17853	2.9481702e-08	2.2836426e-07	1.7983839e-06	0.0	33928	9.438241958618164	4325.55179643631
341	-11874.90865418315	61	0.002290394	0.037198815	0.1266023	-194.67062	3.5576003	-194.17915	-222.2275	0.0	0.0	0.0	0.0	33989	9.850143432617188	4335.404937744141
342	-11388.642370065209	61	0.0022829	0.03786667	0.1266023	-186.69904	0.0105055105	-186.67572	-186.72581	3.4401683e-08	1.544778e-07	8.994248e-07	0.0	34050	10.245882511138916	4345.653783082962
343	-11447.776129675563	61	0.0022685116	0.03696312	0.1266023	-187.66847	3.5456643	-187.17867	-215.13287	2.4569358e-08	1.5632864e-07	1.1990778e-06	0.0	34111	9.536969423294067	4355.19372010231
344	-11643.71566848969	61	0.00222856	0.039864913	0.1266023	-190.8806	3.2703612	-190.4321	-216.21248	9.388419e-08	4.6804402e-07	3.0142255e-06	0.0	34172	9.635873794555664	4364.833543777466
345	-11489.27386278566	61	0.0022861974	0.0564059	0.1266023	-188.34875	12.673892	-90.17957	-190.10046	5.405488e-08	3.7018197e-07	1.4989637e-06	-1.4989637e-06	34233	9.623045921325684	4374.459588289261
346	-11794.332516016904	61	0.0022538234	0.039093845	0.1266023	-193.34972	5.4151015	-192.6188	-235.29474	3.931021e-08	1.5801582e-07	8.994248e-07	0.0	34294	9.886002779006958	4384.348589658737
347	-10992.955696401652	61	0.0023020844	0.0396613	0.1266023	-180.21239	0.015143382	-180.17708	-180.24739	2.4569358e-08	1.3617553e-07	8.9919195e-07	0.0	34355	10.299573183059692	4394.651160001755
348	-11088.208472023718	61	0.00230748	0.047357943	0.1266023	-181.7739	13.165619	-82.980606	-208.71257	4.9138716e-08	2.1832402e-07	1.1990778e-06	0.0	34416	9.734589338302612	4404.388731956482
349	-11794.16640992416	61	0.0022577203	0.042276625	0.1266023	-193.34697	4.7678504	-192.44739	-222.88441	6.3883384e-08	3.955857e-07	2.9976945e-06	0.0	34477	9.564604997634888	4413.956262111664
350	-11412.907097374555	61	0.0022829	0.038629457	0.1266023	-187.09683	3.250038	-186.64136	-212.27122	3.4401683e-08	2.2447013e-07	8.994248e-07	-8.994248e-07	34538	9.600469589233398	4423.5597286224365
351	-11835.450502449647	61	0.0022149961	0.03946531	0.1266023	-194.02379	0.0146288555	-193.98238	-194.05684	6.917742e-08	5.35846e-07	4.2198226e-06	0.0	34599	9.8961021900177	4433.458828449249
352	-11789.866458249744	61	0.00229519	0.048532076	0.1266023	-193.27649	4.805761	-192.35472	-221.00877	2.4569358e-08	2.1225807e-07	8.9919195e-07	-8.9919195e-07	34660	10.1019446849823	4443.563721656799
353	-11224.520128736738	61	0.0022640154	0.039506704	0.1266023	-184.00854	7.9215946	-182.56172	-236.81044	4.9142532e-08	3.3097763e-07	2.0982698e-06	-8.994248e-07	34721	9.626673460006714	4453.1933925151825
354	-11413.823180840816	61	0.00222856	0.036128063	0.1266023	-187.11185	0.015707944	-187.08002	-187.15088	9.881943e-09	7.654521e-08	6.0279854e-07	0.0	34782	9.762611150741577	4462.959002017975
355	-11579.591403886676	61	0.0022382054	0.039273806	0.1266023	-189.82938	0.014405427	-189.79845	-189.86209	0.0	0.0	0.0	0.0	34843	9.407889127731323	4472.369889259338
356	-11313.915338094346	61	0.0023095782	0.04244211	0.1266023	-185.47401	0.012003395	-185.44833	-185.49986	4.9138716e-08	3.30954e-07	1.1990778e-06	-1.1990778e-06	34904	10.131720542907715	4482.50456237793
357	-11513.87510190066	61	0.0023053817	0.0376631	0.1266023	-188.75206	0.013914427	-188.71928	-188.78746	5.405488e-08	2.631704e-07	1.7986167e-06	0.0	34965	9.431124448776245	4491.938745975494
358	-11554.60119378008	61	0.00224573	0.03636074	0.1266023	-189.4197	0.014247712	-189.37903	-189.4481	2.9481702e-08	2.2836427e-07	1.7983839e-06	0.0	35026	9.46291732788086	4501.404660224915
359	-11358.00923277298	61	0.0022861974	0.04479209	0.1266023	-186.19688	3.980548	-185.42513	-208.64568	4.4226372e-08	2.4174255e-07	1.4989637e-06	0.0	35087	8.963720083236694	4510.371377468109
360	-11729.639228793327	61	0.0022538234	0.041746933	0.1266023	-192.28917	3.1871214	-191.8436	-216.97626	3.931021e-08	1.5801582e-07	8.994248e-07	0.0	35148	9.338508367538452	4519.712883710861
361	-10871.654316367581	61	0.0022942908	0.033552814	0.1266023	-178.22383	0.017923247	-178.18892	-178.2655	3.9314028e-08	2.3954152e-07	1.7986167e-06	0.0	35209	10.534210681915283	4530.250092983246
362	-11426.0611972427	61	0.0022861974	0.041203327	0.1266023	-187.31248	0.017995158	-187.28386	-187.35898	5.405488e-08	2.9981584e-07	1.4989637e-06	-8.994248e-07	35270	9.46614384651184	4539.7192351818085
363	-11059.647320847027	61	0.0023215686	0.036715414	0.1266023	-181.30568	5.292189	-180.57678	-222.29866	4.9138716e-08	4.674639e-07	1.4987309e-06	-1.4987309e-06	35331	10.187253475189209	4549.909486532211
364	-11194.08590275282	61	0.0022538234	0.06341473	0.1266023	-183.50961	12.66346	-85.4243	-185.4987	3.931021e-08	1.5801582e-07	8.994248e-07	0.0	35392	9.65530014038086	4559.567784070969
365	-11836.767957834993	61	0.0022484278	0.037044156	0.1266023	-194.04536	0.014062143	-194.00076	-194.08496	4.4226372e-08	3.42576e-07	2.6978087e-06	0.0	35453	10.449673652648926	4570.021410226822
366	-11647.169491369743	61	0.002192691	0.03765926	0.1266023	-190.9372	0.016963635	-190.90762	-190.97772	2.9645829e-08	1.6101806e-07	9.043142e-07	0.0	35514	9.496200323104858	4579.52060842514
367	-11602.407913416624	61	0.0022861974	0.02802698	0.1266023	-190.20341	0.011976081	-190.18295	-190.24358	0.0	0.0	0.0	0.0	35575	9.804831266403198	4589.328408241272
368	-12051.822376279626	61	0.0022484278	0.037772622	0.1266023	-197.57089	0.014660648	-197.53322	-197.59862	4.4226372e-08	3.42576e-07	2.6978087e-06	0.0	35636	9.594524383544922	4598.926034450531
369	-11635.806695634965	61	0.0022514255	0.04505352	0.1266023	-190.75096	4.0254593	-189.97914	-212.90767	4.9142532e-08	3.1266396e-07	2.3981556e-06	0.0	35697	9.617707967758179	4608.546741247177
370	-11128.580653571058	61	0.0022213259	0.033811554	0.1266023	-182.43573	0.013708813	-182.39395	-182.46954	5.9295477e-08	6.702772e-07	3.0142255e-06	-3.0142255e-06	35758	10.46885895729065	4619.018611907959
371	-11430.771229590755	61	0.002215599	0.045309428	0.1266023	-187.38971	0.02016135	-187.34207	-187.43365	7.905936e-08	4.362991e-07	3.0142255e-06	-9.043142e-07	35819	9.590452671051025	4628.613064289093
