Episode	EpReward	EpSteps	EpDist	EpAvgSpeed	DistHigh	AverageStepReward	StdStepReward	MaxStepReward	MinStepReward	AverageDeltaProg	StdDeltaProg	MaxDeltaProg	MinDeltaProg	TotalSteps	EpTime	TotalTime
1	-7.287443933687964	2	0.9980816	0.4463052	0.9980816	-3.643722	0.031468272	-3.6122537	-3.6751902	0.49727765	0.49727765	0.9945553	0.0	2	8.820749521255493	8.821749210357666
2	-3080.6414645444	1000	0.009194328	2.2452862	0.9980816	-3.0806415	0.7112056	-1.694494	-4.340798	6.667427e-06	1.6541664e-05	0.00034313044	-6.4978376e-06	1002	58.65361213684082	67.47835874557495
3	-6504.148261450109	1000	0.01894454	4.980341	0.9980816	-6.5041485	3.2432303	-1.9173776	-15.069125	1.6628366e-05	5.7357483e-05	0.0013910485	-0.00019346364	2002	70.76573491096497	138.24609231948853
4	-16176.450873208938	1000	0.0065541915	2.6456401	0.9980816	-16.17645	5.472197	-4.475608	-19.673626	4.3283444e-06	2.8038121e-05	0.0005875407	-2.8432813e-05	3002	70.05072808265686	208.30181622505188
5	-2926.997080189378	1000	0.023881871	5.5543413	0.9980816	-2.9269972	1.6967328	1.0632267	-4.599409	2.157349e-05	5.9138627e-05	0.0010041017	-9.790063e-06	4002	71.05290174484253	279.3577163219452
6	-4542.874884978763	1000	0.021342723	4.925344	0.9980816	-4.542875	1.6640972	1.1402247	-5.689853	1.9096993e-05	4.8209033e-05	0.0007184404	-1.6355887e-05	5002	72.63933897018433	352.0000538825989
7	-4028.5390042458152	1000	0.027542572	6.5302715	0.9980816	-4.028539	2.9229	1.096164	-12.970383	2.533662e-05	5.8477697e-05	0.00084717013	-4.137866e-06	6002	74.03588676452637	426.0379385948181
8	-33.643409021369976	3	0.9980816	0.47897214	0.9980816	-11.21447	5.3157034	-3.69693	-14.973246	0.32250473	0.45609054	0.96751416	0.0	6005	79.49882817268372	505.53976464271545
9	-15025.771037768247	1000	0.029326385	8.134852	0.9980816	-15.02577	6.5643477	-4.6681256	-20.892725	2.9290843e-05	9.328957e-05	0.0023444777	-5.5342913e-05	7005	75.3118371963501	580.8545987606049
10	-15831.993314188876	1000	0.0266725	6.5075912	0.9980816	-15.831994	5.237625	-4.731988	-21.052116	2.4420775e-05	4.6727804e-05	0.00047494564	-2.6978087e-06	8005	72.58033895492554	653.437935590744
11	-7572.105142657856	1000	0.02640703	6.276647	0.9980816	-7.5721054	5.1850924	-3.9353795	-21.314497	2.4115436e-05	6.35523e-05	0.0010232963	-3.5970006e-06	9005	71.86960959434509	725.3102402687073
12	-1950.438735967206	1000	0.017778303	4.2203717	0.9980816	-1.9504387	1.7773956	1.0909507	-4.5697737	1.5540098e-05	4.341704e-05	0.0006076824	-7.98516e-06	10005	72.82467842102051	798.1387052536011
13	-7576.547073241557	596	0.039767243	9.768696	0.9980816	-12.712329	6.435259	-2.1543088	-20.296673	2.6648371e-05	7.8918405e-05	0.0011608414	-0.00032699108	10601	45.20242643356323	843.3441298007965
14	-4078.857460466928	201	0.039767243	0.12290724	0.9980816	-20.292824	0.002100182	-20.284414	-20.297071	0.0	0.0	0.0	0.0	10802	17.149465322494507	860.4965937137604
15	-4079.070251539114	201	0.039767243	0.13627677	0.9980816	-20.29388	0.0024286578	-20.285292	-20.301249	0.0	0.0	0.0	0.0	11003	17.945068836212158	878.4446609020233
16	-4079.159811899178	201	0.039767243	0.11855451	0.9980816	-20.294329	0.0018009974	-20.288769	-20.29862	0.0	0.0	0.0	0.0	11204	17.593470096588135	896.0411283969879
17	-4079.743501699169	201	0.039767243	0.10987023	0.9980816	-20.297232	0.0020079468	-20.289587	-20.301676	0.0	0.0	0.0	0.0	11405	17.742997884750366	913.7871634960175
18	-4080.119647066318	201	0.039767243	0.09803861	0.9980816	-20.299103	0.0020748607	-20.290905	-20.303576	0.0	0.0	0.0	0.0	11606	17.136615753173828	930.9267771244049
19	-4080.72147417488	201	0.039767243	0.112710975	0.9980816	-20.302097	0.0023426039	-20.294102	-20.305964	0.0	0.0	0.0	0.0	11807	17.683517932891846	948.6132469177246
20	-4081.3128361333997	201	0.039767243	0.11096556	0.9980816	-20.305038	0.0020704113	-20.296968	-20.308352	0.0	0.0	0.0	0.0	12008	17.727564573287964	966.3438098430634
21	-4082.5161723889355	201	0.039767243	0.0896304	0.9980816	-20.311028	0.0022933402	-20.304893	-20.315514	0.0	0.0	0.0	0.0	12209	17.400338888168335	983.7471466064453
22	-4083.8053721175747	201	0.039767243	0.087415144	0.9980816	-20.317442	0.0021785717	-20.312183	-20.321995	0.0	0.0	0.0	0.0	12410	17.73503589630127	1001.4851810932159
23	-4085.815305305573	201	0.039767243	0.11269265	0.9980816	-20.327438	0.003871455	-20.317413	-20.335688	0.0	0.0	0.0	0.0	12611	17.990656852722168	1019.4788355827332
24	-4089.5859060255552	201	0.039767243	0.12318739	0.9980816	-20.346199	0.004667424	-20.332708	-20.354326	0.0	0.0	0.0	0.0	12812	17.579550743103027	1037.0623834133148
25	-4095.345116972466	201	0.039767243	0.10929093	0.9980816	-20.374851	0.00860452	-20.35968	-20.391577	0.0	0.0	0.0	0.0	13013	18.131516695022583	1055.1968989372253
26	-4103.822728341108	201	0.039767243	0.09114802	0.9980816	-20.417028	0.0088388575	-20.402021	-20.430641	0.0	0.0	0.0	0.0	13214	17.49293613433838	1072.692833185196
27	-4106.567505741001	201	0.039767243	0.08182906	0.9980816	-20.430683	0.0009829056	-20.427769	-20.432522	0.0	0.0	0.0	0.0	13415	17.440066814422607	1090.1358983516693
28	-4106.576953591112	201	0.039767243	0.08466262	0.9980816	-20.430733	0.0016300788	-20.420555	-20.433348	0.0	0.0	0.0	0.0	13616	17.938893795013428	1108.07679104805
29	-4106.558958785499	201	0.039767243	0.077038154	0.9980816	-20.430643	0.00093360926	-20.426933	-20.432169	0.0	0.0	0.0	0.0	13817	17.455475568771362	1125.5352647304535
30	-4106.751892529686	201	0.039767243	0.07925587	0.9980816	-20.431602	0.0011491885	-20.426413	-20.433968	0.0	0.0	0.0	0.0	14018	17.97372317314148	1143.5119862556458
31	-4106.395944323432	201	0.039767243	0.07827559	0.9980816	-20.42983	0.0010899517	-20.425941	-20.431929	0.0	0.0	0.0	0.0	14219	17.385496854782104	1160.9004826545715
32	-4106.021851024135	201	0.039767243	0.073005475	0.9980816	-20.42797	0.0012046669	-20.42373	-20.430023	0.0	0.0	0.0	0.0	14420	18.195732593536377	1179.0992126464844
33	-4105.7126836668	201	0.039767243	0.0776707	0.9980816	-20.426432	0.0013653602	-20.420046	-20.428402	0.0	0.0	0.0	0.0	14621	17.059720516204834	1196.1619322299957
34	-4105.8232015453	201	0.039767243	0.084696606	0.9980816	-20.426981	0.0010302366	-20.423952	-20.428719	0.0	0.0	0.0	0.0	14822	17.60630440711975	1213.7712044715881
35	-4105.340811917516	201	0.039767243	0.08763522	0.9980816	-20.424582	0.0011697075	-20.419167	-20.426655	0.0	0.0	0.0	0.0	15023	17.852429151535034	1231.6266317367554
36	-4105.011935207281	201	0.039767243	0.06158284	0.9980816	-20.422943	0.0007067237	-20.42043	-20.424818	0.0	0.0	0.0	0.0	15224	17.775578022003174	1249.405208349228
37	-4105.295840890001	201	0.039767243	0.10115553	0.9980816	-20.424358	0.0011001811	-20.420359	-20.426243	0.0	0.0	0.0	0.0	15425	17.473570346832275	1266.8817768096924
38	-4104.843620864123	201	0.039767243	0.10119119	0.9980816	-20.422108	0.0013404452	-20.417122	-20.424421	0.0	0.0	0.0	0.0	15626	17.959227561950684	1284.8440027236938
39	-4104.392599860227	201	0.039767243	0.08897993	0.9980816	-20.419863	0.0014100649	-20.414417	-20.422033	0.0	0.0	0.0	0.0	15827	17.839094161987305	1302.6860942840576
40	-4104.518728422719	201	0.039767243	0.07706914	0.9980816	-20.42049	0.00077016465	-20.41806	-20.422136	0.0	0.0	0.0	0.0	16028	17.556896686553955	1320.2459886074066
41	-4104.068084969664	201	0.039767243	0.08391459	0.9980816	-20.418247	0.0013895845	-20.409334	-20.420656	0.0	0.0	0.0	0.0	16229	18.251734018325806	1338.5007212162018
42	-4103.69140202904	201	0.039767243	0.08333013	0.9980816	-20.416374	0.001109852	-20.411184	-20.418127	0.0	0.0	0.0	0.0	16430	18.104434728622437	1356.6091530323029
43	-4103.795509995729	201	0.039767243	0.061248977	0.9980816	-20.416893	0.0009322941	-20.412544	-20.418392	0.0	0.0	0.0	0.0	16631	17.56365704536438	1374.1758115291595
44	-4103.387942253062	201	0.039767243	0.06969419	0.9980816	-20.414864	0.0012553495	-20.409811	-20.41683	0.0	0.0	0.0	0.0	16832	17.812740802764893	1391.9915490150452
45	-4103.009250432047	201	0.039767243	0.071668595	0.9980816	-20.41298	0.0011283455	-20.408112	-20.414574	0.0	0.0	0.0	0.0	17033	17.95634436607361	1409.9508917331696
46	-4103.327750207566	201	0.039767243	0.08570116	0.9980816	-20.414568	0.001248847	-20.408628	-20.41697	0.0	0.0	0.0	0.0	17234	18.107629537582397	1428.061518907547
47	-4102.881604787367	201	0.039767243	0.095062144	0.9980816	-20.412348	0.0016148246	-20.401953	-20.414637	0.0	0.0	0.0	0.0	17435	17.96588969230652	1446.0304067134857
48	-4102.533595071087	201	0.039767243	0.054349966	0.9980816	-20.410616	0.00094412954	-20.407196	-20.412325	0.0	0.0	0.0	0.0	17636	17.274766206741333	1463.308228969574
49	-4102.549306841309	201	0.039767243	0.10792521	0.9980816	-20.410692	0.001502284	-20.405628	-20.412811	0.0	0.0	0.0	0.0	17837	17.7988862991333	1481.1101126670837
50	-4102.630399303866	201	0.039767243	0.06112681	0.9980816	-20.411097	0.00092831964	-20.40623	-20.41259	0.0	0.0	0.0	0.0	18038	17.704598665237427	1498.8176817893982
51	-4102.222663971691	201	0.039767243	0.07254074	0.9980816	-20.409067	0.0012909389	-20.401707	-20.410408	0.0	0.0	0.0	0.0	18239	17.315415859222412	1516.1360876560211
52	-4102.106506172524	201	0.039767243	0.078777395	0.9980816	-20.40849	0.0014089625	-20.40271	-20.410711	0.0	0.0	0.0	0.0	18440	16.978532075881958	1533.1166174411774
53	-4102.178125887594	201	0.039767243	0.08233414	0.9980816	-20.408844	0.0011937201	-20.402958	-20.410946	0.0	0.0	0.0	0.0	18641	18.13516592979431	1551.2547821998596
54	-4101.805069803978	201	0.039767243	0.108470045	0.9980816	-20.40699	0.0013277156	-20.40133	-20.408787	0.0	0.0	0.0	0.0	18842	17.187302350997925	1568.4450824260712
55	-4101.718397225859	201	0.039767243	0.09406476	0.9980816	-20.406559	0.0014887349	-20.400084	-20.409142	0.0	0.0	0.0	0.0	19043	17.31938910484314	1585.7674677371979
56	-4101.778188302523	201	0.039767243	0.07727577	0.9980816	-20.406857	0.0014550842	-20.39691	-20.408731	0.0	0.0	0.0	0.0	19244	17.771998167037964	1603.542464017868
57	-4101.547412828186	201	0.039767243	0.07727749	0.9980816	-20.405708	0.0010118083	-20.40131	-20.406784	0.0	0.0	0.0	0.0	19445	17.644235849380493	1621.189698457718
58	-4101.374386319581	201	0.039767243	0.054408677	0.9980816	-20.404846	0.0007555825	-20.401207	-20.406073	0.0	0.0	0.0	0.0	19646	17.328038215637207	1638.5207345485687
59	-4101.526511511334	201	0.039767243	0.08825482	0.9980816	-20.405603	0.0012037151	-20.399256	-20.407402	0.0	0.0	0.0	0.0	19847	17.646197080612183	1656.1699290275574
60	-4101.417528750715	201	0.039767243	0.074298	0.9980816	-20.405062	0.0010353569	-20.398973	-20.40637	0.0	0.0	0.0	0.0	20048	17.941089868545532	1674.114016532898
61	-4101.099324295754	201	0.039767243	0.05629516	0.9980816	-20.403479	0.0009299146	-20.398827	-20.40451	0.0	0.0	0.0	0.0	20249	17.8682541847229	1691.985249042511
62	-4101.253021917219	201	0.039767243	0.08372615	0.9980816	-20.404243	0.0011867371	-20.397675	-20.406199	0.0	0.0	0.0	0.0	20450	18.59790563583374	1710.5851547718048
63	-4101.296129506897	201	0.039767243	0.07301934	0.9980816	-20.404457	0.0011203142	-20.399174	-20.406084	0.0	0.0	0.0	0.0	20651	17.574109077453613	1728.1622624397278
64	-4101.059129404518	201	0.039767243	0.07649086	0.9980816	-20.403276	0.0012077126	-20.397072	-20.40468	0.0	0.0	0.0	0.0	20852	17.59336495399475	1745.7586255073547
65	-4101.030805433586	201	0.039767243	0.078857556	0.9980816	-20.403141	0.001190906	-20.398668	-20.405193	0.0	0.0	0.0	0.0	21053	17.11147379875183	1762.8730981349945
66	-4101.080633353124	201	0.039767243	0.087586015	0.9980816	-20.403385	0.001169233	-20.397047	-20.405334	0.0	0.0	0.0	0.0	21254	17.059430837631226	1779.9355273246765
67	-4100.965226056164	201	0.039767243	0.06593769	0.9980816	-20.402813	0.0010777654	-20.397	-20.404047	0.0	0.0	0.0	0.0	21455	17.70250630378723	1797.6410312652588
68	-4101.012629525192	201	0.039767243	0.07718887	0.9980816	-20.403048	0.0012783315	-20.3986	-20.40479	0.0	0.0	0.0	0.0	21656	17.573158025741577	1815.2171878814697
69	-4100.9515504205665	201	0.039767243	0.079594195	0.9980816	-20.402746	0.0014272785	-20.39418	-20.405209	0.0	0.0	0.0	0.0	21857	17.94025206565857	1833.161438703537
70	-1669.4123549265855	1000	0.024210965	5.749838	0.9980816	-1.6694124	1.6354672	1.059744	-3.7734303	2.1164484e-05	5.3634027e-05	0.0010125767	-4.7849026e-06	22857	70.03307247161865	1903.1975095272064
71	-5501.976716884277	1000	0.04143091	10.5016	0.9980816	-5.5019765	1.5985049	-1.3075875	-7.278502	3.9177085e-05	7.725719e-05	0.0009884895	-5.2824616e-06	23857	69.43907403945923	1972.6395814418793
72	-4544.288961511754	1000	0.049390163	12.497352	0.9980816	-4.544289	0.8237429	-3.0429833	-6.0544	4.719747e-05	0.00011240575	0.0019044643	-2.4922192e-06	24857	70.89834117889404	2043.5409207344055
73	-3665.3830321812397	1000	0.04384365	11.184495	0.9980816	-3.665383	2.783408	1.0560791	-11.018016	4.1592226e-05	8.712509e-05	0.0014775433	-3.4086406e-06	25857	70.32299780845642	2113.866916179657
74	-3935.3393851901715	1000	0.0308663	7.589368	0.9980816	-3.9353395	0.29962724	-3.4656243	-4.5434294	2.8655526e-05	6.833251e-05	0.001036088	-2.093846e-06	26857	70.13451552391052	2184.004429101944
75	-2890.9586551103002	1000	0.082580864	20.874943	0.9980816	-2.8909588	1.7033626	1.2022147	-6.2980933	8.029737e-05	0.00016317179	0.0020739622	-8.162111e-06	27857	70.0434148311615	2254.0498428344727
76	-2745.768571400907	1000	0.026554355	6.2532625	0.9980816	-2.7457685	0.75031364	-0.027491618	-4.190799	2.4222896e-05	6.1271116e-05	0.00089080725	-2.9485673e-06	28857	70.29148507118225	2324.3443262577057
77	-5251.491831715663	1000	0.024184791	6.0525947	0.9980816	-5.251492	0.5206685	-4.4407806	-6.175858	2.1980346e-05	5.1423765e-05	0.0008042648	-3.5972334e-06	29857	69.85495686531067	2394.201281309128
78	-4411.698992902871	1000	0.03462089	9.011774	0.9980816	-4.4116993	0.17639728	-3.9727807	-4.6937094	3.239233e-05	8.303451e-05	0.0014226902	-2.0985026e-06	30857	68.23588371276855	2462.44016289711
79	-3643.8222752347983	1000	0.050365154	12.865693	0.9980816	-3.6438222	0.32077616	-2.9870238	-4.3912888	4.8116126e-05	9.969207e-05	0.0014106147	-5.438924e-06	31857	70.46673393249512	2532.909895181656
80	-5104.469619658182	1000	0.03435875	8.752444	0.9980816	-5.10447	1.2544236	-1.7367188	-6.710536	3.2120544e-05	7.124279e-05	0.0012264475	-3.8915314e-06	32857	70.06636667251587	2602.9792597293854
81	-4391.569662470242	1000	0.0451309	11.640598	0.9980816	-4.391569	0.24538928	-3.9119554	-4.7373147	4.2857293e-05	0.00010886531	0.00182385	-3.6223792e-06	33857	69.16250896453857	2672.1447665691376
82	-1202.211562803547	1000	0.0386426	9.454734	0.9980816	-1.2022115	1.6826961	1.0779902	-4.14465	3.6325226e-05	8.356236e-05	0.0011094799	-5.874783e-06	34857	70.48297476768494	2742.6307389736176
83	-5798.8565144588665	1000	0.023287674	5.7326307	0.9980816	-5.7988563	1.0682763	-4.6565833	-8.776022	2.1046457e-05	5.0290404e-05	0.0006937459	-4.5280904e-06	35857	69.36883664131165	2812.00257396698
84	-1427.4038517258014	1000	0.03827261	9.624659	0.9980816	-1.4274038	1.5363157	1.110661	-4.158209	3.599181e-05	8.501059e-05	0.0013328493	-2.6002526e-06	36857	69.85504364967346	2881.860615968704
85	-7729.11087068656	1000	0.07356253	18.955418	0.9980816	-7.7291107	4.3431964	1.1447382	-19.48261	7.1325536e-05	0.00014993481	0.0022965781	-1.4987309e-06	37857	69.9874382019043	2951.8510525226593
86	-8213.904301605633	1000	0.0412497	10.373267	0.9980816	-8.213904	3.7892995	-2.1424525	-13.857405	3.90341e-05	8.6424596e-05	0.0013353787	-3.3157412e-06	38857	69.84014844894409	3021.69420003891
87	-12036.310575746787	1000	0.03451053	9.026468	0.9980816	-12.03631	7.1409936	-4.7909613	-21.340698	3.2261505e-05	6.5502165e-05	0.00088131614	-5.1110983e-06	39857	69.06433749198914	3090.7615354061127
88	-7966.560284426037	1000	0.037711006	10.1257105	0.9980816	-7.9665604	6.894993	0.9264404	-21.15428	3.545718e-05	9.302633e-05	0.0014883615	-8.9854e-06	40857	69.11695551872253	3159.8804898262024
89	-6493.21955505462	1000	0.03178912	7.914181	0.9980816	-6.49322	1.8819344	-4.574101	-9.719762	2.9550914e-05	6.5262255e-05	0.0011116266	-6.2640756e-06	41857	69.15235638618469	3229.035843849182
90	-3676.2434026051824	1000	0.043390267	10.60913	0.9980816	-3.6762435	0.25255322	-3.2527013	-4.361863	4.1114563e-05	8.538009e-05	0.0013993979	-4.5895576e-06	42857	70.92149877548218	3299.960340499878
91	-6855.394333475217	1000	0.027978782	9.945335	0.9980816	-6.8553944	5.1021647	0.6113169	-19.952553	2.5671303e-05	8.945576e-05	0.0016151927	-6.1836094e-05	43857	68.11101078987122	3368.0743496418
92	-2777.5716681516496	1000	0.108738184	28.463022	0.9980816	-2.7775717	3.07725	1.1160946	-21.83929	0.00010646008	0.00023914462	0.0036104023	-1.7986167e-06	44857	70.28126358985901	3438.358612060547
93	-3841.9715118455256	1000	0.076586634	19.775393	0.9980816	-3.8419716	2.162091	1.2620155	-6.197652	7.437585e-05	0.00015379986	0.002281133	-2.3979228e-06	45857	69.21802115440369	3507.579630613327
94	-2822.034616742317	1000	0.05785954	14.73313	0.9980816	-2.8220346	2.1050923	1.1239865	-6.608489	5.560002e-05	0.00010669406	0.001529336	-2.1606684e-06	46857	70.0585687160492	3577.6411979198456
95	-3883.1966887267363	1000	0.021354128	5.256242	0.9980816	-3.8831968	0.2515716	-3.495253	-4.4631867	1.9137926e-05	4.6157977e-05	0.0008231895	-3.181398e-06	47857	69.92138433456421	3647.5655813217163
96	-1599.8525832819332	1000	0.037559222	9.4858055	0.9980816	-1.5998527	1.5651118	1.0511653	-4.160033	3.5299705e-05	6.998282e-05	0.0010126885	-4.536938e-06	48857	70.59871983528137	3718.1662991046906
97	-3344.5393961556642	1000	0.05648455	13.935959	0.9980816	-3.3445396	2.2082357	1.1647359	-6.5101314	5.424936e-05	0.00015198685	0.0027588177	-1.6603619e-05	49857	70.8583595752716	3789.027656555176
98	-8085.8718046151735	1000	0.038306724	9.319991	0.9980816	-8.085872	3.169627	-4.532525	-13.257403	3.6028625e-05	7.188444e-05	0.0008166637	-1.6037375e-06	50857	71.0032684803009	3860.0339238643646
99	-3448.0711382880136	1000	0.030658817	7.9434333	0.9980816	-3.4480712	0.57494676	-2.0922537	-4.3154573	2.8365128e-05	8.6486165e-05	0.0018468723	-4.829839e-06	51857	68.63338232040405	3928.670305252075
100	-1538.9381410693127	1000	0.05437845	13.078219	0.9980816	-1.5389382	1.8821771	1.1528789	-4.2863946	5.2129424e-05	0.00011602385	0.0018996205	-3.2447278e-06	52857	70.98121619224548	3999.653519630432
101	-5202.347920445836	1000	0.03204769	7.9971933	0.9980816	-5.2023478	0.69355005	-4.4901395	-7.0965853	2.9786672e-05	7.892183e-05	0.0013629738	-3.3224933e-06	53857	69.71014165878296	4069.3656599521637
102	-962.3075564344157	1000	0.04399625	11.388239	0.9980816	-0.9623075	1.2382487	1.0635695	-4.1374836	4.171335e-05	8.9915324e-05	0.0013765786	-6.8619847e-06	54857	69.45880150794983	4138.8274602890015
103	-4630.8842555057	1000	0.045390937	11.536692	0.9980816	-4.6308837	0.3445262	-3.9979663	-5.1988783	4.3157856e-05	9.841841e-05	0.0014249189	-3.427267e-06	55857	69.82940316200256	4208.659861803055
104	-4810.414520104733	1000	0.02648184	6.8478913	0.9980816	-4.810414	0.90542847	0.16594951	-6.4078116	2.4215426e-05	5.9777576e-05	0.0009945948	-6.562099e-06	56857	71.3629822731018	4280.02584195137
105	-4139.2531556502045	1000	0.026503826	0.53573585	0.9980816	-4.139253	0.024619427	-4.0359187	-4.182322	2.1984802e-08	1.4087927e-06	1.0829419e-05	-1.0829419e-05	57857	69.59032487869263	4349.617920398712
106	-4136.199789373704	1000	0.026503826	0.5503797	0.9980816	-4.1362004	0.023475422	-4.00491	-4.1752863	-3.935769e-09	1.7147449e-06	1.0829419e-05	-1.0829419e-05	58857	68.76112461090088	4418.382043361664
107	-4154.314589739171	1000	0.026492996	0.6159898	0.9980816	-4.154315	0.050181724	-3.7544322	-4.2041783	-1.0829419e-08	1.8933963e-06	1.0829419e-05	-2.19848e-05	59857	68.93060898780823	4487.314651250839
108	-4112.86124846829	1000	0.026530402	0.5630336	0.9980816	-4.112861	0.063131884	-3.699687	-4.1707606	3.740564e-08	1.502537e-06	1.0829419e-05	-1.1155382e-05	60857	68.28055167198181	4555.5982003211975
109	-4092.6339133266483	1000	0.026700735	0.60463107	0.9980816	-4.0926337	0.025615819	-3.9539664	-4.1577997	1.7558224e-07	2.4357898e-06	1.4774501e-05	-1.4774501e-05	61857	68.22973585128784	4623.830932378769
110	-4060.299508394896	1000	0.041611847	4.041999	0.9980816	-4.0602994	1.548985	1.1416353	-5.6385303	1.4866132e-05	4.8636528e-05	0.0010058545	-1.0184944e-05	62857	69.78115129470825	4693.6150805950165
111	-6550.919634914249	1000	0.07054587	6.3132668	0.9980816	-6.55092	1.1402643	-4.975715	-10.477169	2.3522776e-05	5.308109e-05	0.0008179471	-5.1669776e-06	63857	69.66348242759705	4763.281561136246
112	-5449.678418984732	444	0.060404412	6.0069175	0.9980816	-12.274051	2.5783176	-4.9279027	-13.704011	-2.3649838e-05	0.00048412534	0.0	-0.010212984	64301	34.49124312400818	4797.774803161621
113	-2736.717927005165	201	0.060404412	0.11338294	0.9980816	-13.615511	0.0011640022	-13.610786	-13.617792	0.0	0.0	0.0	0.0	64502	17.82584810256958	4815.603648662567
114	-2736.8028896716905	201	0.060404412	0.105431095	0.9980816	-13.615934	0.00077044935	-13.612861	-13.617684	0.0	0.0	0.0	0.0	64703	18.20395588874817	4833.810602903366
115	-3861.1703455937904	1000	0.018185781	4.448055	0.9980816	-3.8611703	1.6412344	1.0475256	-5.7047153	1.5751206e-05	4.9147224e-05	0.00083802245	-1.0789372e-05	65703	70.63057398796082	4904.445175170898
116	-18910.435823537846	1000	0.023614066	4.9767823	0.9980816	-18.910435	3.1615744	-7.324758	-20.708523	-4.3756887e-07	2.5046702e-06	0.0	-2.486445e-05	66703	72.96934390068054	4977.417516708374
117	-13097.38082715474	657	0.023614066	0.2616327	0.9980816	-19.935131	0.010840829	-19.891848	-19.966776	0.0	0.0	0.0	0.0	67360	46.674947023391724	5024.095460891724
118	-19904.974049380064	1000	0.023614066	0.29366195	0.9980816	-19.904972	0.014636922	-19.844614	-19.932665	0.0	0.0	0.0	0.0	68360	69.38836646080017	5093.485826015472
119	-2088.6415663308017	105	0.023614066	0.24095261	0.9980816	-19.891825	0.0030555055	-19.884863	-19.897997	0.0	0.0	0.0	0.0	68465	12.058512210845947	5105.547336339951
120	-19465.618569261183	979	0.023614066	0.30770588	0.9980816	-19.883165	0.010139517	-19.820934	-19.907019	0.0	0.0	0.0	0.0	69444	67.87059926986694	5173.420933008194
121	-17933.60383172298	1000	0.023614066	2.617832	0.9980816	-17.933605	4.7612104	-0.41610333	-20.610413	0.0	0.0	0.0	0.0	70444	75.98144817352295	5249.4053790569305
122	-3854.656012724203	1000	0.024734076	5.838675	0.9980816	-3.8546557	1.685311	0.9891678	-5.6446023	2.436482e-05	9.5737065e-05	0.002503773	-3.193505e-06	71444	77.2783842086792	5326.6867616176605
123	-4451.148201672015	1000	0.028976489	6.89808	0.9980816	-4.4511485	1.3485994	0.93789166	-6.13604	2.6723266e-05	6.337669e-05	0.000963754	-9.726733e-06	72444	74.74049639701843	5401.430255413055
124	-2947.0128044855483	1000	0.03823571	8.920413	0.9980816	-2.9470127	2.4146042	1.0366044	-5.873676	3.5945315e-05	8.187445e-05	0.0013666842	-7.111579e-06	73444	74.98988699913025	5476.424139499664
125	-3474.3983202367026	1000	0.027043201	6.406968	0.9980816	-3.4743984	1.9947273	1.0706052	-5.6546807	2.4789077e-05	5.8116784e-05	0.000782365	-8.057803e-06	74444	72.62499046325684	5549.052127838135
126	-4434.5455246732035	1000	0.017829463	4.2684183	0.9980816	-4.434546	1.220227	1.0558094	-5.685976	1.5548661e-05	4.8503167e-05	0.0007948042	-1.304131e-05	75444	72.37206745147705	5621.42719244957
127	-5238.935877525668	1000	0.032818146	7.6234465	0.9980816	-5.238936	1.0306841	1.0965091	-6.125256	3.055503e-05	8.4471125e-05	0.0013895612	-9.216368e-06	76444	73.26529288291931	5694.69548368454
128	-6409.348373835086	1000	0.048191015	11.495744	0.9980816	-6.409348	5.3522096	1.1267798	-17.063133	4.5857756e-05	0.00011209598	0.0018352419	-1.1216849e-05	77444	73.9454116821289	5768.643892526627
129	-8655.303107858963	1000	0.028997548	7.262923	0.9980816	-8.655303	7.2240596	1.0453523	-21.26909	2.6732632e-05	6.1723935e-05	0.0010171179	-5.0857197e-06	78444	73.32492589950562	5841.971817016602
130	-8447.003666347793	1000	0.035376675	8.748881	0.9980816	-8.447004	5.1610427	0.99624664	-16.698828	3.312285e-05	6.861561e-05	0.0009943973	-1.8086284e-06	79444	74.57718682289124	5916.5510013103485
131	-4455.570677661856	1000	0.03723098	8.600251	0.9980816	-4.4555707	1.8054396	1.0560035	-5.6779027	3.4892626e-05	8.817122e-05	0.0016122535	-9.905547e-06	80444	73.93560767173767	5990.489606380463
132	-6920.608717504499	1000	0.029638672	7.1846848	0.9980816	-6.9206095	6.768875	1.0112882	-21.069426	2.7366264e-05	6.06119e-05	0.0007816944	-5.925074e-06	81444	73.75640034675598	6064.248005151749
133	-4031.8163303693314	1000	0.046313427	10.70619	0.9980816	-4.0318165	1.7170721	1.0529733	-6.499547	4.405571e-05	9.7705335e-05	0.0012408495	-7.88644e-06	82444	75.41196751594543	6139.661971092224
134	-3511.4206913255903	1000	0.017342051	3.9305959	0.9980816	-3.511421	1.8049334	1.0288833	-5.273443	1.5119218e-05	3.8243004e-05	0.0004824272	-5.4603443e-06	83444	73.02784895896912	6212.692817926407
135	-1216.5445033049477	1000	0.042180184	9.894305	0.9980816	-1.2165444	2.0131185	1.1222551	-4.4398904	3.98757e-05	9.539404e-05	0.0014603082	-5.889684e-06	84444	72.96855998039246	6285.664376735687
136	-2287.110069960215	1000	0.029799495	7.059981	0.9980816	-2.28711	1.9857663	1.0470787	-5.4983044	2.7534581e-05	5.7732697e-05	0.0007817587	-1.0488555e-05	85444	73.73739075660706	6359.404764413834
137	-4940.113594988905	1000	0.023741264	5.5306206	0.9980816	-4.940113	1.2381644	1.064603	-5.6925473	2.147575e-05	5.4115244e-05	0.0007976496	-9.471551e-06	86444	73.83247709274292	6433.240239620209
138	-4551.888389915505	1000	0.02409613	5.719046	0.9980816	-4.5518885	1.7512267	1.1027471	-5.686872	2.1842305e-05	5.5931952e-05	0.0009663999	-1.2848526e-05	87444	72.12642121315002	6505.36971950531
139	-11464.484642519012	1000	0.052239493	13.044545	0.9980816	-11.464484	6.334854	1.0953102	-20.590532	4.9932012e-05	0.00010575852	0.001853073	-3.5390258e-06	88444	75.19816064834595	6580.570878267288
140	-4514.899395600626	1000	0.019653693	4.521067	0.9980816	-4.5148993	2.0978835	1.0097761	-5.8357673	1.7404664e-05	4.6245557e-05	0.00067843124	-5.569309e-06	89444	72.305988073349	6652.878919363022
141	-4649.860804853987	1000	0.018327069	3.9778135	0.9980816	-4.649861	1.4255122	-0.029955106	-5.7039576	1.6010896e-05	5.009541e-05	0.0007786248	-1.2413599e-05	90444	73.30300378799438	6726.183922529221
142	-9774.032446461162	1000	0.03623573	9.363252	0.9980816	-9.774034	6.506179	0.86081356	-21.08489	3.4020133e-05	8.260644e-05	0.0012094444	-1.6093254e-05	91444	72.53177809715271	6798.718698501587
143	-3885.2066391376875	1000	0.022911115	5.32657	0.9980816	-3.8852065	1.767403	1.070893	-5.6946664	2.0644102e-05	5.269901e-05	0.0010706298	-5.4039992e-06	92444	73.7361147403717	6872.457781553268
144	-4948.6477964369615	1000	0.016797291	3.9343035	0.9980816	-4.948648	1.5943128	1.0751758	-5.714148	1.4470328e-05	3.738422e-05	0.00056546857	-4.226342e-06	93444	72.80908870697021	6945.269868135452
145	-3420.3402063734898	1000	0.021430695	5.0926147	0.9980816	-3.42034	2.3316696	1.0579481	-5.6864924	1.9144498e-05	4.691709e-05	0.00081266835	-5.765818e-06	94444	72.28026628494263	7017.553132534027
146	-3560.1867837649793	1000	0.027163424	6.362733	0.9980816	-3.5601869	1.9717348	1.0619214	-5.6671033	2.484725e-05	5.5695866e-05	0.0007570237	-6.487593e-06	95444	73.90087962150574	7091.4570100307465
147	-3557.1536761899806	1000	0.036683444	8.570882	0.9980816	-3.5571535	1.9424071	1.0775093	-5.6951256	3.4348384e-05	7.572543e-05	0.0013068486	-1.3282523e-05	96444	74.77189445495605	7166.231903076172
