{
    "ac_kwargs":	{
        "hidden_sizes":	[
            32,
            32
        ]
    },
    "alpha":	0.1,
    "batch_size":	256,
    "env":	{
        "<TimeLimit<AcEnv instance>>":	{
            "_action_space":	null,
            "_cached_spec":	null,
            "_elapsed_steps":	null,
            "_max_episode_steps":	1000,
            "_metadata":	null,
            "_observation_space":	null,
            "_reward_range":	null,
            "_saved_kwargs":	{
                "max_episode_steps":	1000
            },
            "env":	{
                "<AcEnv instance>":	{
                    "action_space":	{
                        "Box(-1.0, 1.0, (2,), float32)":	{
                            "_np_random":	null,
                            "_shape":	[
                                2
                            ],
                            "bounded_above":	"[ True  True]",
                            "bounded_below":	"[ True  True]",
                            "dtype":	"float32",
                            "high":	"[1. 1.]",
                            "high_repr":	"1.0",
                            "low":	"[-1. -1.]",
                            "low_repr":	"-1.0"
                        }
                    },
                    "controller":	{
                        "<ac_controller.ACController object at 0x000001B272207CB0>":	{
                            "gamepad":	{
                                "<vgamepad.win.virtual_gamepad.VX360Gamepad object at 0x000001B2716AD1C0>":	{
                                    "CMPFUNC":	"CFunctionType",
                                    "_busp":	1865908698640,
                                    "_devicep":	1865908965136,
                                    "cmp_func":	null,
                                    "report":	"<vgamepad.win.vigem_commons.XUSB_REPORT object at 0x000001B2734AF750>",
                                    "vbus":	{
                                        "<vgamepad.win.virtual_gamepad.VBus object at 0x000001B2734B9460>":	{
                                            "_busp":	1865908698640
                                        }
                                    }
                                }
                            },
                            "steer_scale":	[
                                -270,
                                270
                            ]
                        }
                    },
                    "max_speed":	180.0,
                    "observation_space":	{
                        "Box([ 0.e+00  0.e+00 -2.e+03 -2.e+03 -2.e+03  0.e+00  1.e+00  0.e+00  0.e+00\n  0.e+00 -2.e+03 -2.e+03 -2.e+03 -2.e+03 -1.e+00  0.e+00 -1.e+00  0.e+00\n -1.e+00  0.e+00 -1.e+00  0.e+00 -1.e+00  0.e+00 -1.e+00  0.e+00 -1.e+00\n  0.e+00 -1.e+00  0.e+00 -1.e+00  0.e+00 -1.e+00  0.e+00 -1.e+00  0.e+00\n -1.e+00  0.e+00 -1.e+00  0.e+00 -1.e+00  0.e+00 -1.e+00  0.e+00 -1.e+00\n  0.e+00 -1.e+00  0.e+00 -1.e+00  0.e+00 -1.e+00  0.e+00 -1.e+00  0.e+00\n -1.e+00  0.e+00 -1.e+00  0.e+00 -1.e+00  0.e+00 -1.e+00  0.e+00 -1.e+00\n  0.e+00 -1.e+00  0.e+00 -1.e+00  0.e+00 -1.e+00  0.e+00 -1.e+00  0.e+00\n -1.e+00  0.e+00 -1.e+00  0.e+00 -1.e+00  0.e+00 -1.e+00  0.e+00 -1.e+00\n  0.e+00 -1.e+00  0.e+00 -1.e+00  0.e+00 -1.e+00  0.e+00 -1.e+00  0.e+00\n -1.e+00  0.e+00 -1.e+00  0.e+00], [1.0000000e+00 1.8000000e+02 2.0000000e+03 2.0000000e+03 2.0000000e+03\n 1.0000000e+00 2.0000000e+00 1.0000000e+00 6.2831855e+00 5.0000000e+02\n 2.0000000e+03 2.0000000e+03 2.0000000e+03 2.0000000e+03 1.0000000e+00\n 2.0000000e+03 1.0000000e+00 2.0000000e+03 1.0000000e+00 2.0000000e+03\n 1.0000000e+00 2.0000000e+03 1.0000000e+00 2.0000000e+03 1.0000000e+00\n 2.0000000e+03 1.0000000e+00 2.0000000e+03 1.0000000e+00 2.0000000e+03\n 1.0000000e+00 2.0000000e+03 1.0000000e+00 2.0000000e+03 1.0000000e+00\n 2.0000000e+03 1.0000000e+00 2.0000000e+03 1.0000000e+00 2.0000000e+03\n 1.0000000e+00 2.0000000e+03 1.0000000e+00 2.0000000e+03 1.0000000e+00\n 2.0000000e+03 1.0000000e+00 2.0000000e+03 1.0000000e+00 2.0000000e+03\n 1.0000000e+00 2.0000000e+03 1.0000000e+00 2.0000000e+03 1.0000000e+00\n 2.0000000e+03 1.0000000e+00 2.0000000e+03 1.0000000e+00 2.0000000e+03\n 1.0000000e+00 2.0000000e+03 1.0000000e+00 2.0000000e+03 1.0000000e+00\n 2.0000000e+03 1.0000000e+00 2.0000000e+03 1.0000000e+00 2.0000000e+03\n 1.0000000e+00 2.0000000e+03 1.0000000e+00 2.0000000e+03 1.0000000e+00\n 2.0000000e+03 1.0000000e+00 2.0000000e+03 1.0000000e+00 2.0000000e+03\n 1.0000000e+00 2.0000000e+03 1.0000000e+00 2.0000000e+03 1.0000000e+00\n 2.0000000e+03 1.0000000e+00 2.0000000e+03 1.0000000e+00 2.0000000e+03\n 1.0000000e+00 2.0000000e+03 1.0000000e+00 2.0000000e+03], (94,), float32)":	{
                            "_np_random":	null,
                            "_shape":	[
                                94
                            ],
                            "bounded_above":	"[ True  True  True  True  True  True  True  True  True  True  True  True\n  True  True  True  True  True  True  True  True  True  True  True  True\n  True  True  True  True  True  True  True  True  True  True  True  True\n  True  True  True  True  True  True  True  True  True  True  True  True\n  True  True  True  True  True  True  True  True  True  True  True  True\n  True  True  True  True  True  True  True  True  True  True  True  True\n  True  True  True  True  True  True  True  True  True  True  True  True\n  True  True  True  True  True  True  True  True  True  True]",
                            "bounded_below":	"[ True  True  True  True  True  True  True  True  True  True  True  True\n  True  True  True  True  True  True  True  True  True  True  True  True\n  True  True  True  True  True  True  True  True  True  True  True  True\n  True  True  True  True  True  True  True  True  True  True  True  True\n  True  True  True  True  True  True  True  True  True  True  True  True\n  True  True  True  True  True  True  True  True  True  True  True  True\n  True  True  True  True  True  True  True  True  True  True  True  True\n  True  True  True  True  True  True  True  True  True  True]",
                            "dtype":	"float32",
                            "high":	"[1.0000000e+00 1.8000000e+02 2.0000000e+03 2.0000000e+03 2.0000000e+03\n 1.0000000e+00 2.0000000e+00 1.0000000e+00 6.2831855e+00 5.0000000e+02\n 2.0000000e+03 2.0000000e+03 2.0000000e+03 2.0000000e+03 1.0000000e+00\n 2.0000000e+03 1.0000000e+00 2.0000000e+03 1.0000000e+00 2.0000000e+03\n 1.0000000e+00 2.0000000e+03 1.0000000e+00 2.0000000e+03 1.0000000e+00\n 2.0000000e+03 1.0000000e+00 2.0000000e+03 1.0000000e+00 2.0000000e+03\n 1.0000000e+00 2.0000000e+03 1.0000000e+00 2.0000000e+03 1.0000000e+00\n 2.0000000e+03 1.0000000e+00 2.0000000e+03 1.0000000e+00 2.0000000e+03\n 1.0000000e+00 2.0000000e+03 1.0000000e+00 2.0000000e+03 1.0000000e+00\n 2.0000000e+03 1.0000000e+00 2.0000000e+03 1.0000000e+00 2.0000000e+03\n 1.0000000e+00 2.0000000e+03 1.0000000e+00 2.0000000e+03 1.0000000e+00\n 2.0000000e+03 1.0000000e+00 2.0000000e+03 1.0000000e+00 2.0000000e+03\n 1.0000000e+00 2.0000000e+03 1.0000000e+00 2.0000000e+03 1.0000000e+00\n 2.0000000e+03 1.0000000e+00 2.0000000e+03 1.0000000e+00 2.0000000e+03\n 1.0000000e+00 2.0000000e+03 1.0000000e+00 2.0000000e+03 1.0000000e+00\n 2.0000000e+03 1.0000000e+00 2.0000000e+03 1.0000000e+00 2.0000000e+03\n 1.0000000e+00 2.0000000e+03 1.0000000e+00 2.0000000e+03 1.0000000e+00\n 2.0000000e+03 1.0000000e+00 2.0000000e+03 1.0000000e+00 2.0000000e+03\n 1.0000000e+00 2.0000000e+03 1.0000000e+00 2.0000000e+03]",
                            "high_repr":	"[1.0000000e+00 1.8000000e+02 2.0000000e+03 2.0000000e+03 2.0000000e+03\n 1.0000000e+00 2.0000000e+00 1.0000000e+00 6.2831855e+00 5.0000000e+02\n 2.0000000e+03 2.0000000e+03 2.0000000e+03 2.0000000e+03 1.0000000e+00\n 2.0000000e+03 1.0000000e+00 2.0000000e+03 1.0000000e+00 2.0000000e+03\n 1.0000000e+00 2.0000000e+03 1.0000000e+00 2.0000000e+03 1.0000000e+00\n 2.0000000e+03 1.0000000e+00 2.0000000e+03 1.0000000e+00 2.0000000e+03\n 1.0000000e+00 2.0000000e+03 1.0000000e+00 2.0000000e+03 1.0000000e+00\n 2.0000000e+03 1.0000000e+00 2.0000000e+03 1.0000000e+00 2.0000000e+03\n 1.0000000e+00 2.0000000e+03 1.0000000e+00 2.0000000e+03 1.0000000e+00\n 2.0000000e+03 1.0000000e+00 2.0000000e+03 1.0000000e+00 2.0000000e+03\n 1.0000000e+00 2.0000000e+03 1.0000000e+00 2.0000000e+03 1.0000000e+00\n 2.0000000e+03 1.0000000e+00 2.0000000e+03 1.0000000e+00 2.0000000e+03\n 1.0000000e+00 2.0000000e+03 1.0000000e+00 2.0000000e+03 1.0000000e+00\n 2.0000000e+03 1.0000000e+00 2.0000000e+03 1.0000000e+00 2.0000000e+03\n 1.0000000e+00 2.0000000e+03 1.0000000e+00 2.0000000e+03 1.0000000e+00\n 2.0000000e+03 1.0000000e+00 2.0000000e+03 1.0000000e+00 2.0000000e+03\n 1.0000000e+00 2.0000000e+03 1.0000000e+00 2.0000000e+03 1.0000000e+00\n 2.0000000e+03 1.0000000e+00 2.0000000e+03 1.0000000e+00 2.0000000e+03\n 1.0000000e+00 2.0000000e+03 1.0000000e+00 2.0000000e+03]",
                            "low":	"[ 0.e+00  0.e+00 -2.e+03 -2.e+03 -2.e+03  0.e+00  1.e+00  0.e+00  0.e+00\n  0.e+00 -2.e+03 -2.e+03 -2.e+03 -2.e+03 -1.e+00  0.e+00 -1.e+00  0.e+00\n -1.e+00  0.e+00 -1.e+00  0.e+00 -1.e+00  0.e+00 -1.e+00  0.e+00 -1.e+00\n  0.e+00 -1.e+00  0.e+00 -1.e+00  0.e+00 -1.e+00  0.e+00 -1.e+00  0.e+00\n -1.e+00  0.e+00 -1.e+00  0.e+00 -1.e+00  0.e+00 -1.e+00  0.e+00 -1.e+00\n  0.e+00 -1.e+00  0.e+00 -1.e+00  0.e+00 -1.e+00  0.e+00 -1.e+00  0.e+00\n -1.e+00  0.e+00 -1.e+00  0.e+00 -1.e+00  0.e+00 -1.e+00  0.e+00 -1.e+00\n  0.e+00 -1.e+00  0.e+00 -1.e+00  0.e+00 -1.e+00  0.e+00 -1.e+00  0.e+00\n -1.e+00  0.e+00 -1.e+00  0.e+00 -1.e+00  0.e+00 -1.e+00  0.e+00 -1.e+00\n  0.e+00 -1.e+00  0.e+00 -1.e+00  0.e+00 -1.e+00  0.e+00 -1.e+00  0.e+00\n -1.e+00  0.e+00 -1.e+00  0.e+00]",
                            "low_repr":	"[ 0.e+00  0.e+00 -2.e+03 -2.e+03 -2.e+03  0.e+00  1.e+00  0.e+00  0.e+00\n  0.e+00 -2.e+03 -2.e+03 -2.e+03 -2.e+03 -1.e+00  0.e+00 -1.e+00  0.e+00\n -1.e+00  0.e+00 -1.e+00  0.e+00 -1.e+00  0.e+00 -1.e+00  0.e+00 -1.e+00\n  0.e+00 -1.e+00  0.e+00 -1.e+00  0.e+00 -1.e+00  0.e+00 -1.e+00  0.e+00\n -1.e+00  0.e+00 -1.e+00  0.e+00 -1.e+00  0.e+00 -1.e+00  0.e+00 -1.e+00\n  0.e+00 -1.e+00  0.e+00 -1.e+00  0.e+00 -1.e+00  0.e+00 -1.e+00  0.e+00\n -1.e+00  0.e+00 -1.e+00  0.e+00 -1.e+00  0.e+00 -1.e+00  0.e+00 -1.e+00\n  0.e+00 -1.e+00  0.e+00 -1.e+00  0.e+00 -1.e+00  0.e+00 -1.e+00  0.e+00\n -1.e+00  0.e+00 -1.e+00  0.e+00 -1.e+00  0.e+00 -1.e+00  0.e+00 -1.e+00\n  0.e+00 -1.e+00  0.e+00 -1.e+00  0.e+00 -1.e+00  0.e+00 -1.e+00  0.e+00\n -1.e+00  0.e+00 -1.e+00  0.e+00]"
                        }
                    },
                    "render_mode":	null,
                    "spline_points":	"[[-1.3131790e+02 -6.0170000e-01 -8.2121215e+02 ... -6.0170000e-01\n  -8.1424880e+02  3.2600000e-04]\n [-1.2977295e+02 -5.9540000e-01 -8.2146245e+02 ... -5.9540000e-01\n  -8.1449600e+02  6.5200000e-04]\n [-1.2823730e+02 -5.8890000e-01 -8.2171250e+02 ... -5.8890000e-01\n  -8.1474850e+02  9.7700000e-04]\n ...\n [-1.3591700e+02 -6.1920000e-01 -8.2046290e+02 ... -6.1920000e-01\n  -8.1352990e+02  9.9904000e-01]\n [-1.3439690e+02 -6.1360000e-01 -8.2071210e+02 ... -6.1360000e-01\n  -8.1376730e+02  9.9935700e-01]\n [-1.3286645e+02 -6.0780000e-01 -8.2096145e+02 ... -6.0780000e-01\n  -8.1400430e+02  9.9967400e-01]]",
                    "timeout":	0
                }
            }
        }
    },
    "exp_name":	"n4-r15-3",
    "gamma":	0.999,
    "load_path":	null,
    "logger":	{
        "<sac.utils.logx.EpisodeLogger object at 0x000001B272207890>":	{
            "episode_dict":	{},
            "exp_name":	"n4-r15-3",
            "first_row":	true,
            "log_current_row":	{},
            "log_headers":	[],
            "output_dir":	"C:\\Users\\Node4\\Documents\\aclearning\\standalone\\experiments\\n4-r15-3",
            "output_file":	{
                "<_io.TextIOWrapper name='C:\\\\Users\\\\Node4\\\\Documents\\\\aclearning\\\\standalone\\\\experiments\\\\n4-r15-3\\\\progress.txt' mode='w' encoding='cp1252'>":	{
                    "mode":	"w"
                }
            }
        }
    },
    "lr":	0.0001,
    "n_episodes":	10000,
    "polyak":	0.999,
    "replay_size":	1000000,
    "save_freq":	1,
    "seed":	0,
    "self":	{
        "<sac.sac.SacAgent object at 0x000001B27210D640>":	{
            "alpha":	0.1,
            "batch_size":	256,
            "env":	{
                "<TimeLimit<AcEnv instance>>":	{
                    "_action_space":	null,
                    "_cached_spec":	null,
                    "_elapsed_steps":	null,
                    "_max_episode_steps":	1000,
                    "_metadata":	null,
                    "_observation_space":	null,
                    "_reward_range":	null,
                    "_saved_kwargs":	{
                        "max_episode_steps":	1000
                    },
                    "env":	{
                        "<AcEnv instance>":	{
                            "action_space":	{
                                "Box(-1.0, 1.0, (2,), float32)":	{
                                    "_np_random":	null,
                                    "_shape":	[
                                        2
                                    ],
                                    "bounded_above":	"[ True  True]",
                                    "bounded_below":	"[ True  True]",
                                    "dtype":	"float32",
                                    "high":	"[1. 1.]",
                                    "high_repr":	"1.0",
                                    "low":	"[-1. -1.]",
                                    "low_repr":	"-1.0"
                                }
                            },
                            "controller":	{
                                "<ac_controller.ACController object at 0x000001B272207CB0>":	{
                                    "gamepad":	{
                                        "<vgamepad.win.virtual_gamepad.VX360Gamepad object at 0x000001B2716AD1C0>":	{
                                            "CMPFUNC":	"CFunctionType",
                                            "_busp":	1865908698640,
                                            "_devicep":	1865908965136,
                                            "cmp_func":	null,
                                            "report":	"<vgamepad.win.vigem_commons.XUSB_REPORT object at 0x000001B2734AF750>",
                                            "vbus":	{
                                                "<vgamepad.win.virtual_gamepad.VBus object at 0x000001B2734B9460>":	{
                                                    "_busp":	1865908698640
                                                }
                                            }
                                        }
                                    },
                                    "steer_scale":	[
                                        -270,
                                        270
                                    ]
                                }
                            },
                            "max_speed":	180.0,
                            "observation_space":	{
                                "Box([ 0.e+00  0.e+00 -2.e+03 -2.e+03 -2.e+03  0.e+00  1.e+00  0.e+00  0.e+00\n  0.e+00 -2.e+03 -2.e+03 -2.e+03 -2.e+03 -1.e+00  0.e+00 -1.e+00  0.e+00\n -1.e+00  0.e+00 -1.e+00  0.e+00 -1.e+00  0.e+00 -1.e+00  0.e+00 -1.e+00\n  0.e+00 -1.e+00  0.e+00 -1.e+00  0.e+00 -1.e+00  0.e+00 -1.e+00  0.e+00\n -1.e+00  0.e+00 -1.e+00  0.e+00 -1.e+00  0.e+00 -1.e+00  0.e+00 -1.e+00\n  0.e+00 -1.e+00  0.e+00 -1.e+00  0.e+00 -1.e+00  0.e+00 -1.e+00  0.e+00\n -1.e+00  0.e+00 -1.e+00  0.e+00 -1.e+00  0.e+00 -1.e+00  0.e+00 -1.e+00\n  0.e+00 -1.e+00  0.e+00 -1.e+00  0.e+00 -1.e+00  0.e+00 -1.e+00  0.e+00\n -1.e+00  0.e+00 -1.e+00  0.e+00 -1.e+00  0.e+00 -1.e+00  0.e+00 -1.e+00\n  0.e+00 -1.e+00  0.e+00 -1.e+00  0.e+00 -1.e+00  0.e+00 -1.e+00  0.e+00\n -1.e+00  0.e+00 -1.e+00  0.e+00], [1.0000000e+00 1.8000000e+02 2.0000000e+03 2.0000000e+03 2.0000000e+03\n 1.0000000e+00 2.0000000e+00 1.0000000e+00 6.2831855e+00 5.0000000e+02\n 2.0000000e+03 2.0000000e+03 2.0000000e+03 2.0000000e+03 1.0000000e+00\n 2.0000000e+03 1.0000000e+00 2.0000000e+03 1.0000000e+00 2.0000000e+03\n 1.0000000e+00 2.0000000e+03 1.0000000e+00 2.0000000e+03 1.0000000e+00\n 2.0000000e+03 1.0000000e+00 2.0000000e+03 1.0000000e+00 2.0000000e+03\n 1.0000000e+00 2.0000000e+03 1.0000000e+00 2.0000000e+03 1.0000000e+00\n 2.0000000e+03 1.0000000e+00 2.0000000e+03 1.0000000e+00 2.0000000e+03\n 1.0000000e+00 2.0000000e+03 1.0000000e+00 2.0000000e+03 1.0000000e+00\n 2.0000000e+03 1.0000000e+00 2.0000000e+03 1.0000000e+00 2.0000000e+03\n 1.0000000e+00 2.0000000e+03 1.0000000e+00 2.0000000e+03 1.0000000e+00\n 2.0000000e+03 1.0000000e+00 2.0000000e+03 1.0000000e+00 2.0000000e+03\n 1.0000000e+00 2.0000000e+03 1.0000000e+00 2.0000000e+03 1.0000000e+00\n 2.0000000e+03 1.0000000e+00 2.0000000e+03 1.0000000e+00 2.0000000e+03\n 1.0000000e+00 2.0000000e+03 1.0000000e+00 2.0000000e+03 1.0000000e+00\n 2.0000000e+03 1.0000000e+00 2.0000000e+03 1.0000000e+00 2.0000000e+03\n 1.0000000e+00 2.0000000e+03 1.0000000e+00 2.0000000e+03 1.0000000e+00\n 2.0000000e+03 1.0000000e+00 2.0000000e+03 1.0000000e+00 2.0000000e+03\n 1.0000000e+00 2.0000000e+03 1.0000000e+00 2.0000000e+03], (94,), float32)":	{
                                    "_np_random":	null,
                                    "_shape":	[
                                        94
                                    ],
                                    "bounded_above":	"[ True  True  True  True  True  True  True  True  True  True  True  True\n  True  True  True  True  True  True  True  True  True  True  True  True\n  True  True  True  True  True  True  True  True  True  True  True  True\n  True  True  True  True  True  True  True  True  True  True  True  True\n  True  True  True  True  True  True  True  True  True  True  True  True\n  True  True  True  True  True  True  True  True  True  True  True  True\n  True  True  True  True  True  True  True  True  True  True  True  True\n  True  True  True  True  True  True  True  True  True  True]",
                                    "bounded_below":	"[ True  True  True  True  True  True  True  True  True  True  True  True\n  True  True  True  True  True  True  True  True  True  True  True  True\n  True  True  True  True  True  True  True  True  True  True  True  True\n  True  True  True  True  True  True  True  True  True  True  True  True\n  True  True  True  True  True  True  True  True  True  True  True  True\n  True  True  True  True  True  True  True  True  True  True  True  True\n  True  True  True  True  True  True  True  True  True  True  True  True\n  True  True  True  True  True  True  True  True  True  True]",
                                    "dtype":	"float32",
                                    "high":	"[1.0000000e+00 1.8000000e+02 2.0000000e+03 2.0000000e+03 2.0000000e+03\n 1.0000000e+00 2.0000000e+00 1.0000000e+00 6.2831855e+00 5.0000000e+02\n 2.0000000e+03 2.0000000e+03 2.0000000e+03 2.0000000e+03 1.0000000e+00\n 2.0000000e+03 1.0000000e+00 2.0000000e+03 1.0000000e+00 2.0000000e+03\n 1.0000000e+00 2.0000000e+03 1.0000000e+00 2.0000000e+03 1.0000000e+00\n 2.0000000e+03 1.0000000e+00 2.0000000e+03 1.0000000e+00 2.0000000e+03\n 1.0000000e+00 2.0000000e+03 1.0000000e+00 2.0000000e+03 1.0000000e+00\n 2.0000000e+03 1.0000000e+00 2.0000000e+03 1.0000000e+00 2.0000000e+03\n 1.0000000e+00 2.0000000e+03 1.0000000e+00 2.0000000e+03 1.0000000e+00\n 2.0000000e+03 1.0000000e+00 2.0000000e+03 1.0000000e+00 2.0000000e+03\n 1.0000000e+00 2.0000000e+03 1.0000000e+00 2.0000000e+03 1.0000000e+00\n 2.0000000e+03 1.0000000e+00 2.0000000e+03 1.0000000e+00 2.0000000e+03\n 1.0000000e+00 2.0000000e+03 1.0000000e+00 2.0000000e+03 1.0000000e+00\n 2.0000000e+03 1.0000000e+00 2.0000000e+03 1.0000000e+00 2.0000000e+03\n 1.0000000e+00 2.0000000e+03 1.0000000e+00 2.0000000e+03 1.0000000e+00\n 2.0000000e+03 1.0000000e+00 2.0000000e+03 1.0000000e+00 2.0000000e+03\n 1.0000000e+00 2.0000000e+03 1.0000000e+00 2.0000000e+03 1.0000000e+00\n 2.0000000e+03 1.0000000e+00 2.0000000e+03 1.0000000e+00 2.0000000e+03\n 1.0000000e+00 2.0000000e+03 1.0000000e+00 2.0000000e+03]",
                                    "high_repr":	"[1.0000000e+00 1.8000000e+02 2.0000000e+03 2.0000000e+03 2.0000000e+03\n 1.0000000e+00 2.0000000e+00 1.0000000e+00 6.2831855e+00 5.0000000e+02\n 2.0000000e+03 2.0000000e+03 2.0000000e+03 2.0000000e+03 1.0000000e+00\n 2.0000000e+03 1.0000000e+00 2.0000000e+03 1.0000000e+00 2.0000000e+03\n 1.0000000e+00 2.0000000e+03 1.0000000e+00 2.0000000e+03 1.0000000e+00\n 2.0000000e+03 1.0000000e+00 2.0000000e+03 1.0000000e+00 2.0000000e+03\n 1.0000000e+00 2.0000000e+03 1.0000000e+00 2.0000000e+03 1.0000000e+00\n 2.0000000e+03 1.0000000e+00 2.0000000e+03 1.0000000e+00 2.0000000e+03\n 1.0000000e+00 2.0000000e+03 1.0000000e+00 2.0000000e+03 1.0000000e+00\n 2.0000000e+03 1.0000000e+00 2.0000000e+03 1.0000000e+00 2.0000000e+03\n 1.0000000e+00 2.0000000e+03 1.0000000e+00 2.0000000e+03 1.0000000e+00\n 2.0000000e+03 1.0000000e+00 2.0000000e+03 1.0000000e+00 2.0000000e+03\n 1.0000000e+00 2.0000000e+03 1.0000000e+00 2.0000000e+03 1.0000000e+00\n 2.0000000e+03 1.0000000e+00 2.0000000e+03 1.0000000e+00 2.0000000e+03\n 1.0000000e+00 2.0000000e+03 1.0000000e+00 2.0000000e+03 1.0000000e+00\n 2.0000000e+03 1.0000000e+00 2.0000000e+03 1.0000000e+00 2.0000000e+03\n 1.0000000e+00 2.0000000e+03 1.0000000e+00 2.0000000e+03 1.0000000e+00\n 2.0000000e+03 1.0000000e+00 2.0000000e+03 1.0000000e+00 2.0000000e+03\n 1.0000000e+00 2.0000000e+03 1.0000000e+00 2.0000000e+03]",
                                    "low":	"[ 0.e+00  0.e+00 -2.e+03 -2.e+03 -2.e+03  0.e+00  1.e+00  0.e+00  0.e+00\n  0.e+00 -2.e+03 -2.e+03 -2.e+03 -2.e+03 -1.e+00  0.e+00 -1.e+00  0.e+00\n -1.e+00  0.e+00 -1.e+00  0.e+00 -1.e+00  0.e+00 -1.e+00  0.e+00 -1.e+00\n  0.e+00 -1.e+00  0.e+00 -1.e+00  0.e+00 -1.e+00  0.e+00 -1.e+00  0.e+00\n -1.e+00  0.e+00 -1.e+00  0.e+00 -1.e+00  0.e+00 -1.e+00  0.e+00 -1.e+00\n  0.e+00 -1.e+00  0.e+00 -1.e+00  0.e+00 -1.e+00  0.e+00 -1.e+00  0.e+00\n -1.e+00  0.e+00 -1.e+00  0.e+00 -1.e+00  0.e+00 -1.e+00  0.e+00 -1.e+00\n  0.e+00 -1.e+00  0.e+00 -1.e+00  0.e+00 -1.e+00  0.e+00 -1.e+00  0.e+00\n -1.e+00  0.e+00 -1.e+00  0.e+00 -1.e+00  0.e+00 -1.e+00  0.e+00 -1.e+00\n  0.e+00 -1.e+00  0.e+00 -1.e+00  0.e+00 -1.e+00  0.e+00 -1.e+00  0.e+00\n -1.e+00  0.e+00 -1.e+00  0.e+00]",
                                    "low_repr":	"[ 0.e+00  0.e+00 -2.e+03 -2.e+03 -2.e+03  0.e+00  1.e+00  0.e+00  0.e+00\n  0.e+00 -2.e+03 -2.e+03 -2.e+03 -2.e+03 -1.e+00  0.e+00 -1.e+00  0.e+00\n -1.e+00  0.e+00 -1.e+00  0.e+00 -1.e+00  0.e+00 -1.e+00  0.e+00 -1.e+00\n  0.e+00 -1.e+00  0.e+00 -1.e+00  0.e+00 -1.e+00  0.e+00 -1.e+00  0.e+00\n -1.e+00  0.e+00 -1.e+00  0.e+00 -1.e+00  0.e+00 -1.e+00  0.e+00 -1.e+00\n  0.e+00 -1.e+00  0.e+00 -1.e+00  0.e+00 -1.e+00  0.e+00 -1.e+00  0.e+00\n -1.e+00  0.e+00 -1.e+00  0.e+00 -1.e+00  0.e+00 -1.e+00  0.e+00 -1.e+00\n  0.e+00 -1.e+00  0.e+00 -1.e+00  0.e+00 -1.e+00  0.e+00 -1.e+00  0.e+00\n -1.e+00  0.e+00 -1.e+00  0.e+00 -1.e+00  0.e+00 -1.e+00  0.e+00 -1.e+00\n  0.e+00 -1.e+00  0.e+00 -1.e+00  0.e+00 -1.e+00  0.e+00 -1.e+00  0.e+00\n -1.e+00  0.e+00 -1.e+00  0.e+00]"
                                }
                            },
                            "render_mode":	null,
                            "spline_points":	"[[-1.3131790e+02 -6.0170000e-01 -8.2121215e+02 ... -6.0170000e-01\n  -8.1424880e+02  3.2600000e-04]\n [-1.2977295e+02 -5.9540000e-01 -8.2146245e+02 ... -5.9540000e-01\n  -8.1449600e+02  6.5200000e-04]\n [-1.2823730e+02 -5.8890000e-01 -8.2171250e+02 ... -5.8890000e-01\n  -8.1474850e+02  9.7700000e-04]\n ...\n [-1.3591700e+02 -6.1920000e-01 -8.2046290e+02 ... -6.1920000e-01\n  -8.1352990e+02  9.9904000e-01]\n [-1.3439690e+02 -6.1360000e-01 -8.2071210e+02 ... -6.1360000e-01\n  -8.1376730e+02  9.9935700e-01]\n [-1.3286645e+02 -6.0780000e-01 -8.2096145e+02 ... -6.0780000e-01\n  -8.1400430e+02  9.9967400e-01]]",
                            "timeout":	0
                        }
                    }
                }
            },
            "gamma":	0.999,
            "logger":	{
                "<sac.utils.logx.EpisodeLogger object at 0x000001B272207890>":	{
                    "episode_dict":	{},
                    "exp_name":	"n4-r15-3",
                    "first_row":	true,
                    "log_current_row":	{},
                    "log_headers":	[],
                    "output_dir":	"C:\\Users\\Node4\\Documents\\aclearning\\standalone\\experiments\\n4-r15-3",
                    "output_file":	{
                        "<_io.TextIOWrapper name='C:\\\\Users\\\\Node4\\\\Documents\\\\aclearning\\\\standalone\\\\experiments\\\\n4-r15-3\\\\progress.txt' mode='w' encoding='cp1252'>":	{
                            "mode":	"w"
                        }
                    }
                }
            },
            "n_episodes":	10000,
            "polyak":	0.999,
            "save_freq":	1,
            "start_steps":	10000,
            "step_duration_limit":	null,
            "update_after":	1000,
            "update_every":	50
        }
    },
    "start_steps":	10000,
    "step_duration_limit":	null,
    "update_after":	1000,
    "update_every":	50
}