Episode	EpReward	EpSteps	EpDist	EpAvgSpeed	DistHigh	AverageStepReward	StdStepReward	MaxStepReward	MinStepReward	AverageDeltaProg	StdDeltaProg	MaxDeltaProg	MinDeltaProg	TotalSteps	EpTime	TotalTime
1	427.74965781363557	107	0.0018744365	1.8497521	0.0018744365	3.9976602	0.5004623	4.6164446	3.5148313	1.6485148e-05	0.000122018355	0.0012709927	-3.650668e-06	107	13.107994794845581	13.107994794845581
2	2059.1133827408307	391	0.0053698397	3.0451436	0.0053698397	5.2662745	0.87629163	6.9830413	3.5162618	1.0641614e-05	1.5079915e-05	0.00012290012	-8.693896e-06	498	28.602322340011597	41.71831226348877
3	468.28141456120136	119	0.0023011852	2.8565605	0.0053698397	3.935138	0.5171069	4.5919695	3.2295542	9.41496e-06	9.986182e-06	4.8387446e-05	0.0	617	11.606369495391846	53.32967734336853
4	8345.02453167773	888	0.013828022	4.30267	0.013828022	9.39755	4.8454094	18.104647	2.6067557	1.4161309e-05	3.172565e-05	0.0005374029	-5.1343814e-06	1505	66.88804173469543	120.22370338439941
5	3147.622054034171	667	0.01757079	5.0121055	0.01757079	4.719074	1.5924733	6.386648	0.049795944	2.4493404e-05	8.0180165e-05	0.0011296719	-1.3735145e-05	2172	56.094523191452026	176.3232283592224
6	385.3460040405342	134	0.002724371	2.8209538	0.01757079	2.8757164	0.85600066	4.540333	1.6956503	1.1332323e-05	3.0349483e-05	0.00033692236	0.0	2306	15.343748807907104	191.67296433448792
7	1623.6078781197643	355	0.009692233	5.5292373	0.01757079	4.5735435	1.2203788	6.3696227	0.866503	2.4745355e-05	5.8734266e-05	0.0005100195	-8.2599e-06	2661	32.133126735687256	223.8110330104828
8	4513.444343803251	330	0.014446271	8.959284	0.01757079	13.677104	6.232756	18.969067	3.3426075	4.0113035e-05	8.3784376e-05	0.0010652551	-3.856607e-06	2991	30.773659706115723	254.589688539505
9	540.1583891980712	150	0.0027662474	2.7063684	0.01757079	3.6010554	0.63979155	4.651242	2.573037	1.0390201e-05	2.8537186e-05	0.00032854185	-4.7860667e-06	3141	16.116392612457275	270.7110786437988
10	2591.014464960409	296	0.009369185	6.7274175	0.01757079	8.7534275	5.7988176	17.430874	2.3007395	2.7506978e-05	7.519648e-05	0.00076039135	-1.2706965e-05	3437	28.323993682861328	299.04002261161804
11	241.78308067810207	61	0.0011632806	1.2332737	0.01757079	3.963657	0.4990889	4.5394735	3.4961455	3.7532852e-06	5.4850434e-06	3.0354597e-05	-1.2516975e-06	3498	9.168662786483765	308.2148518562317
12	464.6428553182813	128	0.0034340336	3.7203918	0.01757079	3.6300223	0.7195054	4.7141175	2.5465932	1.6948143e-05	5.5345732e-05	0.00060449087	-1.197448e-06	3626	14.42635703086853	322.6472005844116
13	310.7991359846304	77	0.0016891683	2.2111745	0.01757079	4.036352	0.5024466	4.6208887	3.5103352	6.9272483e-06	7.474632e-06	2.8789975e-05	-3.6983984e-06	3703	11.108976364135742	333.7611298561096
14	420.7165559021136	103	0.002153205	2.9281385	0.01757079	4.084626	0.5197105	4.6102552	3.435727	8.8027555e-06	1.0265375e-05	4.3668784e-05	-2.7127098e-06	3806	11.899914741516113	345.6640431880951
15	239.99077538763592	61	0.0016255869	2.1900585	0.01757079	3.9342752	0.50097895	4.4920797	3.4330316	6.296273e-06	5.770003e-06	3.0485913e-05	0.0	3867	9.449967861175537	355.1190073490143
16	2432.3346006638485	178	0.007483737	8.906787	0.01757079	13.664801	5.534218	18.334282	3.47661	3.532007e-05	7.2840514e-05	0.0007152287	0.0	4045	18.49820065498352	373.6221740245819
17	1277.5789340463903	199	0.0028571794	4.765939	0.01757079	6.419995	3.4512384	10.9504385	0.6677569	8.0623095e-06	4.7947477e-05	0.0006502728	-3.1101517e-05	4244	20.935420036315918	394.5615940093994
18	241.4748284378503	61	0.0014536371	1.6242778	0.01757079	3.9586036	0.5050916	4.566066	3.4588115	4.4264884e-06	4.048283e-06	1.6642734e-05	-1.5409896e-06	4305	9.860099077224731	404.426691532135
19	2463.676842156932	275	0.007482828	6.1356053	0.01757079	8.958824	5.7099266	17.753702	3.1005032	2.297107e-05	4.5924306e-05	0.00045223115	-2.4337787e-06	4580	25.824409246444702	430.2560975551605
20	240.99581401277226	61	0.0013658003	0.98900837	0.01757079	3.950751	0.49505115	4.5530906	3.4859765	2.4786634e-06	3.2181856e-06	1.7837272e-05	-3.4422847e-06	4641	9.573872804641724	439.83600878715515
21	633.9289577319338	170	0.0038183685	3.915141	0.01757079	3.728994	0.52018714	4.5263724	2.9761183	1.7011673e-05	4.4516644e-05	0.0005470828	-2.0954758e-06	4811	18.08489418029785	457.92690110206604
22	3836.5867353962817	360	0.009436494	5.0414906	0.01757079	10.657186	4.6484413	18.28959	3.582137	2.2877706e-05	5.0407692e-05	0.00054678135	-1.5409896e-06	5171	33.82781219482422	491.759712934494
23	961.1445203990855	256	0.0062144687	5.027412	0.01757079	3.754471	1.5420493	6.363645	0.14352325	1.9467165e-05	6.273514e-05	0.00075248186	-7.853378e-06	5427	24.71687889099121	516.4825439453125
24	10893.211386813407	1000	0.029699963	7.0140395	0.029699963	10.893211	5.854045	19.38584	2.5253496	2.8526667e-05	7.05717e-05	0.0009411026	-7.085875e-05	6427	82.61700201034546	599.104514837265
25	1761.9770780637214	377	0.0097135175	5.038381	0.029699963	4.6736794	1.232334	6.9779434	1.9178482	2.2615759e-05	5.4297085e-05	0.00068551674	-3.907364e-06	6804	34.60463190078735	633.7143838405609
26	758.0808047275733	284	0.007483737	5.885315	0.029699963	2.6692986	0.9468623	4.7061467	1.0549834	2.274216e-05	4.730813e-05	0.00065922877	-5.4519624e-06	7088	27.092137813568115	660.811550617218
27	489.20232226642173	119	0.0021881696	2.340006	0.029699963	4.110944	0.50049603	4.7811346	3.5335648	8.076054e-06	9.98814e-06	7.5815246e-05	-3.0142255e-06	7207	14.898312330245972	675.7148604393005
28	12615.048510470533	974	0.017285757	6.5329533	0.029699963	12.951795	5.189871	19.062819	2.7146218	1.6787913e-05	4.267476e-05	0.00060471706	-3.3648685e-05	8181	81.92416572570801	757.6440305709839
29	445.14450307776116	109	0.0017956442	1.7931193	0.029699963	4.0838943	0.5005746	4.7580614	3.5439599	5.330664e-06	6.3244647e-06	2.773793e-05	-2.4337787e-06	8290	13.208028793334961	770.8580739498138
30	595.5227862150098	121	0.0028428219	2.428953	0.029699963	4.9216757	0.6648205	6.0204086	3.570446	1.360378e-05	3.941233e-05	0.00038308348	-1.1990778e-06	8411	14.969260215759277	785.8313844203949
31	3766.0868465869653	437	0.016306078	8.254657	0.029699963	8.618048	5.2245274	18.725876	0.7176771	3.4744087e-05	8.1680075e-05	0.0010501132	-2.46556e-06	8848	39.10006904602051	824.9364488124847
32	710.7288114263675	169	0.005089184	5.937614	0.029699963	4.205496	1.3957363	5.9310427	0.104297526	2.2895041e-05	5.919176e-05	0.0006482875	-3.2552052e-05	9017	18.912659883499146	843.8551044464111
33	8197.647612374272	725	0.0133289145	4.849703	0.029699963	11.3071	5.120831	18.908138	2.385374	1.6696447e-05	4.4258504e-05	0.0005581705	-2.5656074e-05	9742	60.638660192489624	904.4987351894379
34	4772.242944762958	1000	0.038020875	7.386672	0.038020875	4.7722425	1.9614086	6.522871	0.042028945	3.680878e-05	8.35937e-05	0.0011330284	-1.2524426e-05	10742	83.775949716568	988.2796821594238
35	2883.1389233447203	651	0.022203587	6.787698	0.038020875	4.428785	1.9236175	6.5609994	0.09267014	3.227335e-05	8.907519e-05	0.0013086936	-1.3933051e-05	11393	55.82528328895569	1044.1099116802216
36	4925.833052552491	1000	0.046350237	8.864419	0.046350237	4.925833	2.0427926	6.5923004	-0.38678616	4.5422265e-05	0.00010544277	0.0018674433	-1.2163073e-05	12393	88.65401935577393	1132.7679245471954
37	345.3040482969049	87	0.0018546623	2.428038	0.046350237	3.969012	0.51520026	4.546356	3.4114645	7.137604e-06	9.305029e-06	3.9141392e-05	-7.605413e-06	12480	11.647615432739258	1144.420536994934
38	5557.171079103565	1000	0.04414481	8.886162	0.046350237	5.557171	1.3504182	6.591167	0.03364693	4.3210475e-05	9.232663e-05	0.0014370587	-1.3977289e-05	13480	85.94577145576477	1230.3703389167786
39	2852.880564354318	654	0.015637964	5.1681356	0.046350237	4.3622026	1.9954773	6.519931	-0.99817264	2.2153597e-05	6.0742193e-05	0.0012270818	-1.5747733e-05	14134	56.928866386413574	1287.3042023181915
40	510.55123500822924	127	0.0063187284	10.1489315	0.046350237	4.020089	1.4666061	5.6566973	0.13411596	3.9953422e-05	0.00010904737	0.0011721326	-1.0277145e-05	14261	15.281496286392212	1302.5896954536438
41	585.2387455556467	145	0.0058318297	8.489244	0.046350237	4.0361295	1.0775795	5.118646	0.13547973	3.3696946e-05	0.00010296847	0.0011753241	0.0	14406	15.682729959487915	1318.277423620224
42	1017.8591123754084	255	0.007008912	6.219103	0.046350237	3.9916043	1.1649635	5.80482	0.112682246	2.2744876e-05	6.798921e-05	0.000993842	-7.3967967e-06	14661	23.73320174217224	1342.014640569687
43	2154.975447541669	407	0.012117556	6.2947173	0.046350237	5.2947803	1.2851177	6.64171	0.12741461	2.6802425e-05	6.566762e-05	0.00084459444	-7.026829e-06	15068	36.99829149246216	1379.0179283618927
44	4163.6327313450565	793	0.02621152	6.4881344	0.046350237	5.2504826	1.2648889	6.511922	0.19524163	3.1491578e-05	9.3769064e-05	0.0014949073	-1.0630116e-05	15861	66.31383299827576	1445.3357594013214
45	5481.857935036636	1000	0.036099553	7.140547	0.046350237	5.4818573	1.5755416	6.596482	-0.44083345	3.488151e-05	0.00010232034	0.0014660619	-1.5845522e-05	16861	84.21395587921143	1529.5547108650208
46	1410.6725798260154	326	0.99701256	13.610188	0.99701256	4.3272166	1.5460349	7.290289	0.20690094	0.0030546219	0.054736964	0.98983866	-0.00018204097	17187	27.433021783828735	1556.9917783737183
