{
    "ac_kwargs":	{
        "hidden_sizes":	[
            32,
            32
        ]
    },
    "alpha":	0.1,
    "batch_size":	10,
    "env":	{
        "<TimeLimit<AcEnv instance>>":	{
            "_action_space":	null,
            "_cached_spec":	null,
            "_elapsed_steps":	null,
            "_max_episode_steps":	1000,
            "_metadata":	null,
            "_observation_space":	null,
            "_reward_range":	null,
            "_saved_kwargs":	{
                "max_episode_steps":	1000
            },
            "env":	{
                "<AcEnv instance>":	{
                    "action_space":	{
                        "Box(-1.0, 1.0, (2,), float32)":	{
                            "_np_random":	null,
                            "_shape":	[
                                2
                            ],
                            "bounded_above":	"[ True  True]",
                            "bounded_below":	"[ True  True]",
                            "dtype":	"float32",
                            "high":	"[1. 1.]",
                            "high_repr":	"1.0",
                            "low":	"[-1. -1.]",
                            "low_repr":	"-1.0"
                        }
                    },
                    "controller":	{
                        "<ac_controller.ACController object at 0x000001F5249A9190>":	{
                            "gamepad":	{
                                "<vgamepad.win.virtual_gamepad.VX360Gamepad object at 0x000001F5249A8E60>":	{
                                    "CMPFUNC":	"CFunctionType",
                                    "_busp":	2152700582032,
                                    "_devicep":	2152700085456,
                                    "cmp_func":	null,
                                    "report":	"<vgamepad.win.vigem_commons.XUSB_REPORT object at 0x000001F537A1A250>",
                                    "vbus":	{
                                        "<vgamepad.win.virtual_gamepad.VBus object at 0x000001F537420980>":	{
                                            "_busp":	2152700582032
                                        }
                                    }
                                }
                            },
                            "steer_scale":	[
                                -270,
                                270
                            ]
                        }
                    },
                    "max_speed":	180.0,
                    "observation_space":	{
                        "Box([ 0.e+00  0.e+00 -2.e+03 -2.e+03 -2.e+03  0.e+00  1.e+00  0.e+00  0.e+00\n  0.e+00], [1.0000000e+00 1.8000000e+02 2.0000000e+03 2.0000000e+03 2.0000000e+03\n 1.0000000e+00 2.0000000e+00 1.0000000e+00 6.2831855e+00 5.0000000e+02], (10,), float32)":	{
                            "_np_random":	null,
                            "_shape":	[
                                10
                            ],
                            "bounded_above":	"[ True  True  True  True  True  True  True  True  True  True]",
                            "bounded_below":	"[ True  True  True  True  True  True  True  True  True  True]",
                            "dtype":	"float32",
                            "high":	"[1.0000000e+00 1.8000000e+02 2.0000000e+03 2.0000000e+03 2.0000000e+03\n 1.0000000e+00 2.0000000e+00 1.0000000e+00 6.2831855e+00 5.0000000e+02]",
                            "high_repr":	"[1.0000000e+00 1.8000000e+02 2.0000000e+03 2.0000000e+03 2.0000000e+03\n 1.0000000e+00 2.0000000e+00 1.0000000e+00 6.2831855e+00 5.0000000e+02]",
                            "low":	"[ 0.e+00  0.e+00 -2.e+03 -2.e+03 -2.e+03  0.e+00  1.e+00  0.e+00  0.e+00\n  0.e+00]",
                            "low_repr":	"[ 0.e+00  0.e+00 -2.e+03 -2.e+03 -2.e+03  0.e+00  1.e+00  0.e+00  0.e+00\n  0.e+00]"
                        }
                    },
                    "render_mode":	null,
                    "spline_points":	"[[-131.02314758 -126.26766865 -121.54162422 ... -140.14110525\n  -135.43153261 -131.02314758]\n [-822.34631348 -821.97422797 -822.60297971 ... -820.28325317\n  -821.05317287 -822.34631348]]"
                }
            }
        }
    },
    "exp_name":	"teset",
    "gamma":	0.999,
    "load_path":	null,
    "logger":	{
        "<sac.utils.logx.EpisodeLogger object at 0x000001F53755B620>":	{
            "episode_dict":	{},
            "exp_name":	"teset",
            "first_row":	true,
            "log_current_row":	{},
            "log_headers":	[],
            "output_dir":	"Z:\\ACRL\\standalone\\experiments\\teset",
            "output_file":	{
                "<_io.TextIOWrapper name='Z:\\\\ACRL\\\\standalone\\\\experiments\\\\teset\\\\progress.txt' mode='w' encoding='cp1252'>":	{
                    "mode":	"w"
                }
            }
        }
    },
    "lr":	0.0001,
    "n_episodes":	100,
    "polyak":	0.999,
    "replay_size":	1000000,
    "save_freq":	1,
    "seed":	0,
    "self":	{
        "<sac.sac.SacAgent object at 0x000001F537588140>":	{
            "alpha":	0.1,
            "batch_size":	10,
            "env":	{
                "<TimeLimit<AcEnv instance>>":	{
                    "_action_space":	null,
                    "_cached_spec":	null,
                    "_elapsed_steps":	null,
                    "_max_episode_steps":	1000,
                    "_metadata":	null,
                    "_observation_space":	null,
                    "_reward_range":	null,
                    "_saved_kwargs":	{
                        "max_episode_steps":	1000
                    },
                    "env":	{
                        "<AcEnv instance>":	{
                            "action_space":	{
                                "Box(-1.0, 1.0, (2,), float32)":	{
                                    "_np_random":	null,
                                    "_shape":	[
                                        2
                                    ],
                                    "bounded_above":	"[ True  True]",
                                    "bounded_below":	"[ True  True]",
                                    "dtype":	"float32",
                                    "high":	"[1. 1.]",
                                    "high_repr":	"1.0",
                                    "low":	"[-1. -1.]",
                                    "low_repr":	"-1.0"
                                }
                            },
                            "controller":	{
                                "<ac_controller.ACController object at 0x000001F5249A9190>":	{
                                    "gamepad":	{
                                        "<vgamepad.win.virtual_gamepad.VX360Gamepad object at 0x000001F5249A8E60>":	{
                                            "CMPFUNC":	"CFunctionType",
                                            "_busp":	2152700582032,
                                            "_devicep":	2152700085456,
                                            "cmp_func":	null,
                                            "report":	"<vgamepad.win.vigem_commons.XUSB_REPORT object at 0x000001F537A1A250>",
                                            "vbus":	{
                                                "<vgamepad.win.virtual_gamepad.VBus object at 0x000001F537420980>":	{
                                                    "_busp":	2152700582032
                                                }
                                            }
                                        }
                                    },
                                    "steer_scale":	[
                                        -270,
                                        270
                                    ]
                                }
                            },
                            "max_speed":	180.0,
                            "observation_space":	{
                                "Box([ 0.e+00  0.e+00 -2.e+03 -2.e+03 -2.e+03  0.e+00  1.e+00  0.e+00  0.e+00\n  0.e+00], [1.0000000e+00 1.8000000e+02 2.0000000e+03 2.0000000e+03 2.0000000e+03\n 1.0000000e+00 2.0000000e+00 1.0000000e+00 6.2831855e+00 5.0000000e+02], (10,), float32)":	{
                                    "_np_random":	null,
                                    "_shape":	[
                                        10
                                    ],
                                    "bounded_above":	"[ True  True  True  True  True  True  True  True  True  True]",
                                    "bounded_below":	"[ True  True  True  True  True  True  True  True  True  True]",
                                    "dtype":	"float32",
                                    "high":	"[1.0000000e+00 1.8000000e+02 2.0000000e+03 2.0000000e+03 2.0000000e+03\n 1.0000000e+00 2.0000000e+00 1.0000000e+00 6.2831855e+00 5.0000000e+02]",
                                    "high_repr":	"[1.0000000e+00 1.8000000e+02 2.0000000e+03 2.0000000e+03 2.0000000e+03\n 1.0000000e+00 2.0000000e+00 1.0000000e+00 6.2831855e+00 5.0000000e+02]",
                                    "low":	"[ 0.e+00  0.e+00 -2.e+03 -2.e+03 -2.e+03  0.e+00  1.e+00  0.e+00  0.e+00\n  0.e+00]",
                                    "low_repr":	"[ 0.e+00  0.e+00 -2.e+03 -2.e+03 -2.e+03  0.e+00  1.e+00  0.e+00  0.e+00\n  0.e+00]"
                                }
                            },
                            "render_mode":	null,
                            "spline_points":	"[[-131.02314758 -126.26766865 -121.54162422 ... -140.14110525\n  -135.43153261 -131.02314758]\n [-822.34631348 -821.97422797 -822.60297971 ... -820.28325317\n  -821.05317287 -822.34631348]]"
                        }
                    }
                }
            },
            "gamma":	0.999,
            "logger":	{
                "<sac.utils.logx.EpisodeLogger object at 0x000001F53755B620>":	{
                    "episode_dict":	{},
                    "exp_name":	"teset",
                    "first_row":	true,
                    "log_current_row":	{},
                    "log_headers":	[],
                    "output_dir":	"Z:\\ACRL\\standalone\\experiments\\teset",
                    "output_file":	{
                        "<_io.TextIOWrapper name='Z:\\\\ACRL\\\\standalone\\\\experiments\\\\teset\\\\progress.txt' mode='w' encoding='cp1252'>":	{
                            "mode":	"w"
                        }
                    }
                }
            },
            "n_episodes":	100,
            "polyak":	0.999,
            "save_freq":	1,
            "start_steps":	100,
            "step_duration_limit":	null,
            "update_after":	20,
            "update_every":	2
        }
    },
    "start_steps":	100,
    "step_duration_limit":	null,
    "update_after":	20,
    "update_every":	2
}